[{
    "mainItem": " ",
    "children": [{
            "label": "MBS TOken",
            "value": "MBS3423254"
        },
        {
            "label": "Number of Tokens",
            "value": "32,523,37 @ $1,000 each"
        },
        {
            "label": "Asset Type",
            "value": "MBS Token"
        },
        {
            "label": "Issuer",
            "value": "Adventure Lending"
        },
        {
            "label": "Currency",
            "value": "USD"
        }
    ]
}]