[{
        "mainItem": "",
        "children": [{
                "label": "Type",
                "value": "M&A Portfolio - Century Mortgage"
            },
            {
                "label": "Coupon",
                "value": "$2,245,092"
            },
            {
                "label": "Percentage",
                "value": "$32,523,370"
            },
            {
                "label": "Amount",
                "value": "4.3%"
            },
            {
                "label": "Number of Tokens",
                "value": "358 Months"
            }
        ]
    },
    {
        "mainItem": "",
        "children": [{
                "label": "Type",
                "value": "M&A Portfolio - Century Mortgage"
            },
            {
                "label": "Coupon",
                "value": "$2,245,092"
            },
            {
                "label": "Percentage",
                "value": "$32,523,370"
            },
            {
                "label": "Amount",
                "value": "4.3%"
            },
            {
                "label": "Number of Tokens",
                "value": "358 Months"
            }
        ]
    },
    {
        "mainItem": "",
        "children": [{
                "label": "Type",
                "value": "M&A Portfolio - Century Mortgage"
            },
            {
                "label": "Coupon",
                "value": "$2,245,092"
            },
            {
                "label": "Percentage",
                "value": "$32,523,370"
            },
            {
                "label": "Amount",
                "value": "4.3%"
            },
            {
                "label": "Number of Tokens",
                "value": "358 Months"
            }
        ]
    }
]