[{
    "mainItem": "Quick Overview",
    "children": [{
            "label": "Address",
            "value": "123 REposit St. San Francisco, CA 94401"
        },
        {
            "label": "Unpaid Balance",
            "value": "$2,245,092"
        },
        {
            "label": "Term",
            "value": "240 months"
        },
        {
            "label": "Rate",
            "value": "4.3%"
        },
        {
            "label": "Age",
            "value": "3 Months"
        }
    ]
}]