[{
        "name": "Closing Disclosures",
        "status": "Uploaded",
        "currentHash": "h543234365424",
        "size": "3.3MB",
        "lastUpdate": "10/24/2020 @ 5:30 PM CST",
        "fileName": "closing disclosure.pdf",
        "required": true
    },
    {
        "name": "Loan Estimate",
        "status": "Uploaded",
        "currentHash": "h543234365424",
        "size": "6.3MB",
        "lastUpdate": "10/24/2020 @ 5:30 PM CST",
        "fileName": "1003 signed.pdf",
        "required": true
    },
    {
        "name": "Purchase Contract",
        "status": "Uploaded",
        "currentHash": "h543234365424",
        "size": "7.3MB",
        "lastUpdate": "10/24/2020 @ 5:30 PM CST",
        "fileName": "loan estimate.pdf",
        "required": true
    },
    {
        "name": "Signed 1003 Application",
        "status": "Failed",
        "currentHash": "",
        "size": "4.3MB",
        "lastUpdate": "10/24/2020 @ 5:30 PM CST",
        "fileName": "purchasing agreement.pdf",
        "required": true
    },
    {
        "name": "Closing Disclosures",
        "status": "Uploaded",
        "currentHash": "h543234365424",
        "size": "8.3MB",
        "lastUpdate": "10/24/2020 @ 5:30 PM CST",
        "fileName": "closing disclosure.pdf",
        "required": true
    },
    {
        "name": "Loan Estimate",
        "status": "Uploaded",
        "currentHash": "h543234365424",
        "size": "5.3MB",
        "lastUpdate": "10/24/2020 @ 5:30 PM CST",
        "fileName": "1003 signed.pdf",
        "required": true
    },
    {
        "name": "Purchase Contract",
        "status": "Uploaded",
        "currentHash": "h543234365424",
        "size": "9.3MB",
        "lastUpdate": "10/24/2020 @ 5:30 PM CST",
        "fileName": "loan estimate.pdf",
        "required": true
    },
    {
        "name": "Signed 1003 Application",
        "status": "Uploaded",
        "currentHash": "h543234365424",
        "size": "5.3MB",
        "lastUpdate": "10/24/2020 @ 5:30 PM CST",
        "fileName": "purchasing agreement.pdf",
        "required": true
    },
    {
        "name": "Closing Disclosures",
        "status": "Uploaded",
        "currentHash": "h543234365424",
        "size": "1.3MB",
        "lastUpdate": "10/24/2020 @ 5:30 PM CST",
        "fileName": "closing disclosure.pdf",
        "required": true
    },
    {
        "name": "Loan Estimate",
        "status": "Uploaded",
        "currentHash": "h543234365424",
        "size": "5.3MB",
        "lastUpdate": "10/24/2020 @ 5:30 PM CST",
        "fileName": "1003 signed.pdf",
        "required": false
    },
    {
        "name": "Purchase Contract",
        "status": "Uploaded",
        "currentHash": "h543234365424",
        "size": "2.3MB",
        "lastUpdate": "10/24/2020 @ 5:30 PM CST",
        "fileName": "loan estimate.pdf",
        "required": false
    },
    {
        "name": "Signed 1003 Application",
        "status": "Uploaded",
        "currentHash": "h543234365424",
        "size": "7.3MB",
        "lastUpdate": "10/24/2020 @ 5:30 PM CST",
        "fileName": "purchasing agreement.pdf",
        "required": false
    }
]