<svg xmlns="http://www.w3.org/2000/svg" xmlns:xlink="http://www.w3.org/1999/xlink" width="411" height="435" viewBox="0 0 411 435">
  <defs>
    <linearGradient id="linear-gradient" x1="0.454" y1="0.699" x2="0.465" y2="2.673" gradientUnits="objectBoundingBox">
      <stop offset="0" stop-color="#fff"/>
      <stop offset="1" stop-color="#2abfbf"/>
    </linearGradient>
    <filter id="Rectangle" x="0" y="0" width="411" height="435" filterUnits="userSpaceOnUse">
      <feOffset dy="12" input="SourceAlpha"/>
      <feGaussianBlur stdDeviation="10" result="blur"/>
      <feFlood flood-color="#b0bac9" flood-opacity="0.122"/>
      <feComposite operator="in" in2="blur"/>
      <feComposite in="SourceGraphic"/>
    </filter>
    <clipPath id="clip-path">
      <path id="Rectangle-2" data-name="Rectangle" d="M6,0H44a6,6,0,0,1,6,6V332a0,0,0,0,1,0,0H0a0,0,0,0,1,0,0V6A6,6,0,0,1,6,0Z" fill="rgba(255,255,255,0.4)"/>
    </clipPath>
    <filter id="Rectangle-3" x="205" y="120.36" width="74" height="282.64" filterUnits="userSpaceOnUse">
      <feOffset dy="-2" input="SourceAlpha"/>
      <feGaussianBlur stdDeviation="4" result="blur-2"/>
      <feFlood flood-color="#636d84" flood-opacity="0.443"/>
      <feComposite operator="in" in2="blur-2"/>
      <feComposite in="SourceGraphic"/>
    </filter>
    <clipPath id="clip-path-2">
      <path id="Rectangle-4" data-name="Rectangle" d="M6,0H44a6,6,0,0,1,6,6V332a0,0,0,0,1,0,0H0a0,0,0,0,1,0,0V6A6,6,0,0,1,6,0Z" fill="rgba(255,255,255,0.39)"/>
    </clipPath>
    <filter id="Rectangle-5" x="133" y="285.89" width="74" height="117.11" filterUnits="userSpaceOnUse">
      <feOffset dy="-2" input="SourceAlpha"/>
      <feGaussianBlur stdDeviation="4" result="blur-3"/>
      <feFlood flood-color="#636d84" flood-opacity="0.443"/>
      <feComposite operator="in" in2="blur-3"/>
      <feComposite in="SourceGraphic"/>
    </filter>
  </defs>
  <g id="Group_2" data-name="Group 2" transform="translate(2387.5 5906)">
    <g transform="matrix(1, 0, 0, 1, -2387.5, -5906)" filter="url(#Rectangle)">
      <rect id="Rectangle-6" data-name="Rectangle" width="351" height="375" rx="6" transform="translate(30 18)" fill="url(#linear-gradient)"/>
    </g>
    <text id="_326" data-name="326" transform="translate(-2341.5 -5581)" font-size="24" font-family="Roboto-Bold, Roboto" font-weight="700"><tspan x="0" y="0">326</tspan></text>
    <text id="PAID_OFF_LOANS" data-name="PAID OFF LOANS" transform="translate(-2341.5 -5630)" font-size="10" font-family="Roboto-Bold, Roboto" font-weight="700" letter-spacing="0.05em"><tspan x="0" y="0">PAID OFF </tspan><tspan x="0" y="13.1">LOANS</tspan></text>
    <g id="Group_9" data-name="Group 9" transform="translate(-2170.5 -5845)">
      <path id="Rectangle-7" data-name="Rectangle" d="M6,0H44a6,6,0,0,1,6,6V332a0,0,0,0,1,0,0H0a0,0,0,0,1,0,0V6A6,6,0,0,1,6,0Z" fill="rgba(217,224,234,0.55)"/>
      <g id="Group_9-2" data-name="Group 9" clip-path="url(#clip-path)">
        <g transform="matrix(1, 0, 0, 1, -217, -61)" filter="url(#Rectangle-3)">
          <rect id="Rectangle-8" data-name="Rectangle" width="50" height="258.64" transform="translate(217 134.36)" fill="#2bc0c0"/>
        </g>
      </g>
    </g>
    <g id="Group_8" data-name="Group 8" transform="translate(-2242.5 -5845)">
      <path id="Rectangle-9" data-name="Rectangle" d="M6,0H44a6,6,0,0,1,6,6V332a0,0,0,0,1,0,0H0a0,0,0,0,1,0,0V6A6,6,0,0,1,6,0Z" fill="rgba(217,224,234,0.55)"/>
      <g id="Group_8-2" data-name="Group 8" clip-path="url(#clip-path-2)">
        <g transform="matrix(1, 0, 0, 1, -145, -61)" filter="url(#Rectangle-5)">
          <rect id="Rectangle-10" data-name="Rectangle" width="50" height="93.11" transform="translate(145 299.89)" fill="#2bc0c0"/>
        </g>
      </g>
    </g>
    <text id="_348_465_342" data-name="$348,465,342" transform="translate(-2104.5 -5742)" fill="#26294b" font-size="20" font-family="Roboto-Bold, Roboto" font-weight="700"><tspan x="0" y="0">$348.5M</tspan></text>
    <text id="TOTAL_PRINCIPLE_BALA" data-name="TOTAL PRINCIPLE BALA" transform="translate(-2023.5 -5794)" fill="#26294b" font-size="10" font-family="Roboto-Bold, Roboto" font-weight="700" letter-spacing="0.05em"><tspan x="-54.132" y="0">PRINCIPLE</tspan><tspan x="-46.95" y="13.1">BALANCE</tspan></text>
    <g id="Group_7" data-name="Group 7" transform="translate(-2169.5 -5786)">
      <g id="Line_9" data-name="Line 9">
        <path id="Line_9-2" data-name="Line 9" d="M.5.5H146.221" transform="translate(0 15)" fill="none"/>
        <path id="Line_9-3" data-name="Line 9" d="M.5.5H146.221" transform="translate(0 15)" fill="none" stroke="#26294b" stroke-linecap="square" stroke-miterlimit="10" stroke-width="3"/>
      </g>
    </g>
    <text id="TOTAL_PRINCIPLE_BALA-2" data-name="TOTAL PRINCIPLE BALA" transform="translate(-2217.5 -5861)" fill="rgba(38,41,75,0.5)" font-size="15" font-family="Roboto-Bold, Roboto" font-weight="700" letter-spacing="0.05em"><tspan x="-13.659" y="0">758</tspan></text>
    <text id="TOTAL_PRINCIPLE_BALA-3" data-name="TOTAL PRINCIPLE BALA" transform="translate(-2145.5 -5861)" fill="rgba(38,41,75,0.5)" font-size="15" font-family="Roboto-Bold, Roboto" font-weight="700" letter-spacing="0.05em"><tspan x="-20.578" y="0">425M</tspan></text>
    <g id="Group_7-2" data-name="Group 7" transform="translate(-2340.5 -5621)">
      <g id="Line_9-4" data-name="Line 9">
        <path id="Line_9-5" data-name="Line 9" d="M.5.5H146.221" transform="translate(0 15)" fill="none"/>
        <path id="Line_9-6" data-name="Line 9" d="M.5.5H146.221" transform="translate(0 15)" fill="none" stroke="#26294b" stroke-linecap="square" stroke-miterlimit="10" stroke-width="3"/>
      </g>
    </g>
  </g>
</svg>
