<?xml version="1.0" encoding="UTF-8"?>
<svg width="39px" height="39px" viewBox="0 0 39 39" version="1.1" xmlns="http://www.w3.org/2000/svg" xmlns:xlink="http://www.w3.org/1999/xlink">
    <title>link</title>
    <defs>
        <filter id="filter-1">
            <feColorMatrix in="SourceGraphic" type="matrix" values="0 0 0 0 0.062745 0 0 0 0 0.752941 0 0 0 0 0.752941 0 0 0 1.000000 0"></feColorMatrix>
        </filter>
    </defs>
    <g id="Dashboard" stroke="none" stroke-width="1" fill="none" fill-rule="evenodd">
        <g id="Dashboard-V2" transform="translate(-373.000000, -768.000000)">
            <g id="link" transform="translate(364.000000, 768.000000)" filter="url(#filter-1)">
                <g transform="translate(9.000000, 0.000000)" fill="#000000" fill-rule="nonzero" id="Shape">
                    <path d="M23.0859635,29.7566999 L17.0145152,35.9969856 C13.1218889,40.0000197 6.81593861,40.0019898 2.92139583,35.9969856 C-0.972840306,31.9956063 -0.974756799,25.513479 2.92139583,21.5101297 L8.99207754,15.269056 C9.08071835,15.1779636 9.17098776,15.0885612 9.2628396,15.0008947 C9.84162035,14.4488906 10.7803184,14.8429766 10.8119788,15.6538434 C10.8267742,16.0326419 10.8578213,16.4108888 10.905197,16.7873232 C10.9420704,17.0802282 10.8480089,17.3741575 10.644784,17.5829025 C9.38143216,18.8806834 4.88442079,23.5030968 4.87230856,23.5155474 C2.05598447,26.4122094 2.05652109,31.0952999 4.87230856,33.9914103 C7.6902425,36.8864174 12.2460519,36.8858658 15.0634492,33.9914103 L21.1348975,27.7503366 L21.162495,27.721968 C23.9453188,24.8321618 23.9329766,20.1515141 21.1341309,17.2744737 C20.5044481,16.6271987 19.7866833,16.1255488 19.019473,15.7686571 C18.6694449,15.6058533 18.4501981,15.2432879 18.4725827,14.8490443 C18.4956791,14.4405089 18.5684589,14.036555 18.6892231,13.6466132 C18.8504384,13.126445 19.4198667,12.8616721 19.9095688,13.0729388 C21.0650605,13.5712791 22.1470355,14.3038172 23.0859635,15.2689772 C26.9716904,19.2633432 26.9710005,25.7629644 23.0859635,29.7566999 L23.0859635,29.7566999 Z M15.9140365,23.7310616 C16.8529645,24.6962231 17.9349395,25.4287625 19.0904312,25.9271036 C19.5801333,26.1382917 20.1495616,25.8735185 20.3107769,25.3534282 C20.4315411,24.9634857 20.5043209,24.5595312 20.5274173,24.1509951 C20.5498019,23.7567509 20.3304785,23.3941849 19.980527,23.2313808 C19.2133167,22.8745674 18.4955519,22.3729166 17.8658691,21.7255618 C15.0670234,18.8485166 15.0546812,14.1678613 17.837505,11.2780504 L17.8651025,11.2496818 L23.9365508,5.00859792 C26.7539481,2.11413766 31.3097575,2.11358605 34.1276914,5.00859792 C36.9434789,7.904713 36.9440155,12.5878112 34.1276914,15.4844779 C34.1156559,15.4968497 29.6186445,20.1193495 28.355216,21.4171324 C28.1519911,21.6259566 28.0579296,21.9198076 28.094803,22.212713 C28.1421284,22.5889415 28.1732315,22.9671388 28.1880212,23.3461947 C28.2196816,24.1571416 29.1584563,24.5511494 29.7371604,23.9991445 C29.8290305,23.9114977 29.9193003,23.8220948 30.0079225,23.7309828 L36.0786042,17.4898989 C39.9747568,13.486543 39.9728403,7.00440513 36.0786042,3.00301931 C32.184138,-1.00199139 25.8781111,-1.00002136 21.9854848,3.00301931 L15.9140365,9.24331518 C12.0289995,13.2371361 12.0283096,19.7367679 15.9140365,23.7310616 L15.9140365,23.7310616 Z"></path>
                </g>
            </g>
        </g>
    </g>
</svg>