<?xml version="1.0" encoding="UTF-8"?>
<svg width="52px" height="52px" viewBox="0 0 52 52" version="1.1" xmlns="http://www.w3.org/2000/svg" xmlns:xlink="http://www.w3.org/1999/xlink">
    <title>Drag and Drop Icon</title>
    <g id="Tokenization" stroke="none" stroke-width="1" fill="none" fill-rule="evenodd">
        <g id="Tokenization-2" transform="translate(-694.000000, -480.000000)">
            <g id="Group" transform="translate(614.000000, 481.000000)">
                <g id="Drag-and-Drop-Icon" transform="translate(81.000000, 0.000000)">
                    <path d="M19.7802198,1.0658141e-13 L46.7032967,1.0658141e-13 C48.5240157,1.07419984e-13 50,1.47598434 50,3.2967033 L50,30.2197802 C50,32.0404992 48.5240157,33.5164835 46.7032967,33.5164835 L19.7802198,33.5164835 C17.9595008,33.5164835 16.4835165,32.0404992 16.4835165,30.2197802 L16.4835165,3.2967033 C16.4835165,1.47598434 17.9595008,1.06915871e-13 19.7802198,1.0658141e-13 Z" id="Rectangle" stroke="#B0BAC9" stroke-width="1.0989011" fill="#F9FBFC" stroke-dasharray="1.098901098901099,1.098901098901099"></path>
                    <rect id="Rectangle" stroke="#0BBEBE" stroke-width="1.0989011" fill="#FFFFFF" x="-1.20792265e-13" y="16.4835165" width="33.5164835" height="33.5164835" rx="3.2967033"></rect>
                    <path d="M31.5934211,5.04395604 C32.0267628,5.04395604 32.4598505,5.20880064 32.7918396,5.53903637 L32.7918396,5.53903637 L39.5125528,12.252145 C39.8451444,12.582977 40.010989,13.0167185 40.010989,13.4502284 C40.010989,13.8837384 39.8451444,14.3174798 39.5126029,14.6482619 L39.5126029,14.6482619 L39.1027712,15.0559829 C38.7722271,15.384708 38.3391494,15.5495152 37.9058623,15.5495152 C37.4725206,15.5495152 37.039433,15.3846706 36.706874,15.0538653 L36.706874,15.0538653 L33.578577,11.9240706 L33.578577,31.1764121 C33.578577,31.6441424 33.3883811,32.0678715 33.080119,32.3745027 C32.773782,32.6792188 32.3507107,32.8681319 31.8831779,32.8681319 L31.8831779,32.8681319 L31.3036787,32.8681319 C30.8361459,32.8681319 30.4130746,32.6792188 30.1067377,32.3745027 C29.7984756,32.0678715 29.6082797,31.6441424 29.6082797,31.1764121 L29.6082797,31.1764121 L29.6082797,11.9240684 L26.4778597,15.0559829 C26.1473156,15.384708 25.714238,15.5495152 25.2809509,15.5495152 C24.8476091,15.5495152 24.4145215,15.3846706 24.0839597,15.0558578 L24.0839597,15.0558578 L23.6743795,14.648387 C23.341696,14.3175343 23.1758242,13.8837608 23.1758242,13.4502284 C23.1758242,13.016696 23.341696,12.5829226 23.6728233,12.2536208 L23.6728233,12.2536208 L30.3965122,5.53748838 C30.7270563,5.2087633 31.160134,5.04395604 31.5934211,5.04395604 Z" id="Path" stroke="#FFFFFF" stroke-width="2" fill="#0BBEBE" fill-rule="nonzero" transform="translate(31.593407, 18.956044) rotate(-315.000000) translate(-31.593407, -18.956044) "></path>
                </g>
            </g>
        </g>
    </g>
</svg>