<?xml version="1.0" encoding="UTF-8"?>
<svg width="1125px" height="440px" viewBox="0 0 1125 440" version="1.1" xmlns="http://www.w3.org/2000/svg" xmlns:xlink="http://www.w3.org/1999/xlink">
    <title>Group 2</title>
    <defs>
        <rect id="path-1" x="1" y="0" width="491" height="398" rx="6"></rect>
        <filter x="-7.4%" y="-6.2%" width="114.9%" height="118.3%" filterUnits="objectBoundingBox" id="filter-2">
            <feMorphology radius="0.5" operator="dilate" in="SourceAlpha" result="shadowSpreadOuter1"></feMorphology>
            <feOffset dx="0" dy="12" in="shadowSpreadOuter1" result="shadowOffsetOuter1"></feOffset>
            <feGaussianBlur stdDeviation="10" in="shadowOffsetOuter1" result="shadowBlurOuter1"></feGaussianBlur>
            <feComposite in="shadowBlurOuter1" in2="SourceAlpha" operator="out" result="shadowBlurOuter1"></feComposite>
            <feColorMatrix values="0 0 0 0 0.690196078   0 0 0 0 0.729411765   0 0 0 0 0.788235294  0 0 0 0.119512811 0" type="matrix" in="shadowBlurOuter1"></feColorMatrix>
        </filter>
        <rect id="path-3" x="314" y="314" width="157" height="42.3" rx="21"></rect>
        <filter x="-4.5%" y="-11.8%" width="108.9%" height="133.1%" filterUnits="objectBoundingBox" id="filter-4">
            <feOffset dx="0" dy="2" in="SourceAlpha" result="shadowOffsetOuter1"></feOffset>
            <feGaussianBlur stdDeviation="2" in="shadowOffsetOuter1" result="shadowBlurOuter1"></feGaussianBlur>
            <feColorMatrix values="0 0 0 0 0.0431372549   0 0 0 0 0.745098039   0 0 0 0 0.745098039  0 0 0 0.2 0" type="matrix" in="shadowBlurOuter1"></feColorMatrix>
        </filter>
        <text id="text-5" font-family="Roboto-Medium, Roboto" font-size="14" font-weight="400" fill="#FFFFFF">
            <tspan x="376.427734" y="341">Start </tspan>
            <tspan x="351.664551" y="360">Tokenization</tspan>
        </text>
        <filter x="-3.5%" y="-12.3%" width="107.0%" height="149.1%" filterUnits="objectBoundingBox" id="filter-6">
            <feOffset dx="0" dy="2" in="SourceAlpha" result="shadowOffsetOuter1"></feOffset>
            <feGaussianBlur stdDeviation="1" in="shadowOffsetOuter1" result="shadowBlurOuter1"></feGaussianBlur>
            <feColorMatrix values="0 0 0 0 0.0588235294   0 0 0 0 0.443137255   0 0 0 0 0.443137255  0 0 0 0.1 0" type="matrix" in="shadowBlurOuter1"></feColorMatrix>
        </filter>
        <rect id="path-7" x="253" y="118" width="115" height="34" rx="17"></rect>
        <filter x="-6.1%" y="-14.7%" width="112.2%" height="141.2%" filterUnits="objectBoundingBox" id="filter-8">
            <feOffset dx="0" dy="2" in="SourceAlpha" result="shadowOffsetOuter1"></feOffset>
            <feGaussianBlur stdDeviation="2" in="shadowOffsetOuter1" result="shadowBlurOuter1"></feGaussianBlur>
            <feColorMatrix values="0 0 0 0 0.631372549   0 0 0 0 0.435294118   0 0 0 0 0.8  0 0 0 0.2 0" type="matrix" in="shadowBlurOuter1"></feColorMatrix>
        </filter>
        <text id="text-9" font-family="Roboto-Medium, Roboto" font-size="12" font-weight="400" fill="#FFFFFF">
            <tspan x="292.858398" y="141">MBS Token</tspan>
        </text>
        <filter x="-6.5%" y="-6.2%" width="112.9%" height="125.0%" filterUnits="objectBoundingBox" id="filter-10">
            <feOffset dx="0" dy="2" in="SourceAlpha" result="shadowOffsetOuter1"></feOffset>
            <feGaussianBlur stdDeviation="1" in="shadowOffsetOuter1" result="shadowBlurOuter1"></feGaussianBlur>
            <feColorMatrix values="0 0 0 0 0.534542803   0 0 0 0 0.341329095   0 0 0 0 0.700706593  0 0 0 0.1 0" type="matrix" in="shadowBlurOuter1"></feColorMatrix>
        </filter>
        <linearGradient x1="50%" y1="0%" x2="50%" y2="100%" id="linearGradient-11">
            <stop stop-color="#FBFCFE" offset="0%"></stop>
            <stop stop-color="#F9FAFB" offset="100%"></stop>
        </linearGradient>
        <rect id="path-12" x="21" y="219" width="450" height="45" rx="6"></rect>
        <filter x="-0.4%" y="-4.4%" width="100.9%" height="108.9%" filterUnits="objectBoundingBox" id="filter-13">
            <feGaussianBlur stdDeviation="1.5" in="SourceAlpha" result="shadowBlurInner1"></feGaussianBlur>
            <feOffset dx="0" dy="1" in="shadowBlurInner1" result="shadowOffsetInner1"></feOffset>
            <feComposite in="shadowOffsetInner1" in2="SourceAlpha" operator="arithmetic" k2="-1" k3="1" result="shadowInnerInner1"></feComposite>
            <feColorMatrix values="0 0 0 0 0.84456146   0 0 0 0 0.876063848   0 0 0 0 0.907566236  0 0 0 1 0" type="matrix" in="shadowInnerInner1"></feColorMatrix>
        </filter>
        <rect id="path-14" x="1" y="0" width="491" height="398" rx="6"></rect>
        <filter x="-7.4%" y="-6.2%" width="114.9%" height="118.3%" filterUnits="objectBoundingBox" id="filter-15">
            <feMorphology radius="0.5" operator="dilate" in="SourceAlpha" result="shadowSpreadOuter1"></feMorphology>
            <feOffset dx="0" dy="12" in="shadowSpreadOuter1" result="shadowOffsetOuter1"></feOffset>
            <feGaussianBlur stdDeviation="10" in="shadowOffsetOuter1" result="shadowBlurOuter1"></feGaussianBlur>
            <feComposite in="shadowBlurOuter1" in2="SourceAlpha" operator="out" result="shadowBlurOuter1"></feComposite>
            <feColorMatrix values="0 0 0 0 0.690196078   0 0 0 0 0.729411765   0 0 0 0 0.788235294  0 0 0 0.119512811 0" type="matrix" in="shadowBlurOuter1"></feColorMatrix>
        </filter>
        <rect id="path-16" x="878" y="314" width="185" height="42.3" rx="21"></rect>
        <filter x="-3.8%" y="-11.8%" width="107.6%" height="133.1%" filterUnits="objectBoundingBox" id="filter-17">
            <feOffset dx="0" dy="2" in="SourceAlpha" result="shadowOffsetOuter1"></feOffset>
            <feGaussianBlur stdDeviation="2" in="shadowOffsetOuter1" result="shadowBlurOuter1"></feGaussianBlur>
            <feColorMatrix values="0 0 0 0 0.631372549   0 0 0 0 0.435294118   0 0 0 0 0.8  0 0 0 0.2 0" type="matrix" in="shadowBlurOuter1"></feColorMatrix>
        </filter>
        <text id="text-18" font-family="Roboto-Medium, Roboto" font-size="14" font-weight="400" fill="#FFFFFF">
            <tspan x="899.158203" y="341">Continue Tokenization</tspan>
        </text>
        <filter x="-2.8%" y="-15.4%" width="105.6%" height="169.2%" filterUnits="objectBoundingBox" id="filter-19">
            <feOffset dx="0" dy="2" in="SourceAlpha" result="shadowOffsetOuter1"></feOffset>
            <feGaussianBlur stdDeviation="1" in="shadowOffsetOuter1" result="shadowBlurOuter1"></feGaussianBlur>
            <feColorMatrix values="0 0 0 0 0.534542803   0 0 0 0 0.341329095   0 0 0 0 0.700706593  0 0 0 0.1 0" type="matrix" in="shadowBlurOuter1"></feColorMatrix>
        </filter>
        <rect id="path-20" x="613" y="219" width="450" height="45" rx="6"></rect>
        <filter x="-0.4%" y="-4.4%" width="100.9%" height="108.9%" filterUnits="objectBoundingBox" id="filter-21">
            <feGaussianBlur stdDeviation="1.5" in="SourceAlpha" result="shadowBlurInner1"></feGaussianBlur>
            <feOffset dx="0" dy="1" in="shadowBlurInner1" result="shadowOffsetInner1"></feOffset>
            <feComposite in="shadowOffsetInner1" in2="SourceAlpha" operator="arithmetic" k2="-1" k3="1" result="shadowInnerInner1"></feComposite>
            <feColorMatrix values="0 0 0 0 0.84456146   0 0 0 0 0.876063848   0 0 0 0 0.907566236  0 0 0 1 0" type="matrix" in="shadowInnerInner1"></feColorMatrix>
        </filter>
    </defs>
    <g id="Tokenization" stroke="none" stroke-width="1" fill="none" fill-rule="evenodd">
        <g id="Tokenization-1" transform="translate(-158.000000, -203.000000)">
            <g id="Group-2" transform="translate(178.000000, 212.000000)">
                <g id="Total-Tokenization">
                    <g id="Rectangle">
                        <use fill="black" fill-opacity="1" filter="url(#filter-2)" xlink:href="#path-1"></use>
                        <use stroke="#D9E0EA" stroke-width="1" fill="#FFFFFF" fill-rule="evenodd" xlink:href="#path-1"></use>
                    </g>
                    <line x1="0.687244898" y1="53.5" x2="491.5" y2="53.5" id="Line-8" stroke="#D9E0EA" stroke-linecap="square"></line>
                    <text id="Tokenize-a-loan" font-family="Roboto-Medium, Roboto" font-size="16" font-weight="400" fill="#26294B">
                        <tspan x="21" y="34">Tokenize a loan</tspan>
                    </text>
                    <text id="Select-asset-type" font-family="Roboto-Regular, Roboto" font-size="13" font-weight="normal" fill="#26294B">
                        <tspan x="21" y="98">Select asset type</tspan>
                    </text>
                </g>
                <g id="Rectangle">
                    <use fill="black" fill-opacity="1" filter="url(#filter-4)" xlink:href="#path-3"></use>
                    <use fill="#0BBEBE" fill-rule="evenodd" xlink:href="#path-3"></use>
                </g>
                <g id="Start-Tokenization" fill="#FFFFFF" fill-opacity="1">
                    <use filter="url(#filter-6)" xlink:href="#text-5"></use>
                    <use xlink:href="#text-5"></use>
                </g>
                <rect id="Rectangle" stroke="#0BBEBE" x="21" y="118" width="217" height="34" rx="17"></rect>
                <g id="Rectangle">
                    <use fill="black" fill-opacity="1" filter="url(#filter-8)" xlink:href="#path-7"></use>
                    <use fill="#A16FCC" fill-rule="evenodd" xlink:href="#path-7"></use>
                </g>
                <text id="Mortgage-and-Servici" font-family="Roboto-Medium, Roboto" font-size="12" font-weight="400" fill="#26294B">
                    <tspan x="60" y="141">Mortgage and Servicing Token</tspan>
                </text>
                <g id="Group-3" transform="translate(31.000000, 123.000000)">
                    <circle id="Oval" stroke="#0BBEBE" stroke-width="0.75" fill="#FFFFFF" cx="12" cy="12" r="12"></circle>
                    <circle id="Oval" stroke="#0BBEBE" stroke-width="0.75" fill="#FFFFFF" cx="12" cy="12" r="9.75"></circle>
                    <text id="M&amp;S" font-family="Roboto-Bold, Roboto" font-size="6" font-weight="bold" fill="#0BBEBE">
                        <tspan x="5.25" y="14">M&amp;S</tspan>
                    </text>
                </g>
                <g id="MBS-Token" fill="#FFFFFF" fill-opacity="1">
                    <use filter="url(#filter-10)" xlink:href="#text-9"></use>
                    <use xlink:href="#text-9"></use>
                </g>
                <g id="Group-4" transform="translate(263.000000, 123.000000)">
                    <circle id="Oval" stroke="#FFFFFF" stroke-width="0.75" fill="#A16FCC" cx="12" cy="12" r="12"></circle>
                    <circle id="Oval" stroke="#FFFFFF" stroke-width="0.75" fill="#A16FCC" cx="12" cy="12" r="9.75"></circle>
                    <text id="MBS" font-family="Roboto-Bold, Roboto" font-size="6" font-weight="bold" fill="#FFFFFF">
                        <tspan x="5.25" y="14">MBS</tspan>
                    </text>
                </g>
                <text id="Select-loan-file" font-family="Roboto-Regular, Roboto" font-size="13" font-weight="normal" fill="#26294B">
                    <tspan x="21" y="203">Select loan file</tspan>
                </text>
                <g id="Rectangle" fill-rule="nonzero">
                    <use fill="url(#linearGradient-11)" xlink:href="#path-12"></use>
                    <use fill="black" fill-opacity="1" filter="url(#filter-13)" xlink:href="#path-12"></use>
                    <rect stroke="#D9E0EA" stroke-width="1" stroke-linejoin="square" x="21.5" y="219.5" width="449" height="44" rx="6"></rect>
                </g>
                <text id="Please-select-a-loan" font-family="Roboto-Regular, Roboto" font-size="14" font-weight="normal" fill="#B0BAC9">
                    <tspan x="36" y="249">Please select a loan folder</tspan>
                </text>
                <polygon id="Triangle" fill="#B0BAC9" transform="translate(450.000000, 243.500000) rotate(-180.000000) translate(-450.000000, -243.500000) " points="450 240 455 247 445 247"></polygon>
                <g id="Total-Tokenization" transform="translate(592.000000, 0.000000)">
                    <g id="Rectangle">
                        <use fill="black" fill-opacity="1" filter="url(#filter-15)" xlink:href="#path-14"></use>
                        <use stroke="#D9E0EA" stroke-width="1" fill="#FFFFFF" fill-rule="evenodd" xlink:href="#path-14"></use>
                    </g>
                    <line x1="0.687244898" y1="53.5" x2="491.5" y2="53.5" id="Line-8" stroke="#D9E0EA" stroke-linecap="square"></line>
                    <text id="Continue-a-tokenizat" font-family="Roboto-Medium, Roboto" font-size="16" font-weight="400" fill="#26294B">
                        <tspan x="21" y="34">Continue a tokenization in progrss</tspan>
                    </text>
                    <text id="Select-a-token-type" font-family="Roboto-Regular, Roboto" font-size="13" font-weight="normal" fill="#26294B">
                        <tspan x="21" y="98">Select a token type</tspan>
                    </text>
                </g>
                <rect id="Rectangle" stroke="#0BBEBE" x="614" y="118" width="217" height="34" rx="17"></rect>
                <rect id="Rectangle" stroke="#A16FCC" x="846" y="118" width="115" height="34" rx="17"></rect>
                <text id="Mortgage-and-Servici" font-family="Roboto-Medium, Roboto" font-size="12" font-weight="400" fill="#26294B">
                    <tspan x="653" y="141">Mortgage and Servicing Token</tspan>
                </text>
                <circle id="Oval" stroke="#0BBEBE" stroke-width="0.75" fill="#FFFFFF" cx="636" cy="135" r="12"></circle>
                <circle id="Oval" stroke="#0BBEBE" stroke-width="0.75" fill="#FFFFFF" cx="636" cy="135" r="9.75"></circle>
                <text id="M&amp;S" font-family="Roboto-Bold, Roboto" font-size="6" font-weight="bold" fill="#0BBEBE">
                    <tspan x="629.25" y="137">M&amp;S</tspan>
                </text>
                <text id="MBS-Token" font-family="Roboto-Medium, Roboto" font-size="12" font-weight="400" fill="#26294B">
                    <tspan x="885" y="142">MBS Token</tspan>
                </text>
                <circle id="Oval" stroke="#A16FCC" stroke-width="0.75" fill="#FFFFFF" cx="868" cy="135" r="12"></circle>
                <circle id="Oval" stroke="#A16FCC" stroke-width="0.75" fill="#FFFFFF" cx="868" cy="135" r="9.75"></circle>
                <text id="MBS" font-family="Roboto-Bold, Roboto" font-size="6" font-weight="bold" fill="#A16FCC">
                    <tspan x="861.25" y="137">MBS</tspan>
                </text>
                <g id="Rectangle">
                    <use fill="black" fill-opacity="1" filter="url(#filter-17)" xlink:href="#path-16"></use>
                    <use fill="#A16FCC" fill-rule="evenodd" xlink:href="#path-16"></use>
                </g>
                <g id="Continue-Tokenizatio" fill="#FFFFFF" fill-opacity="1">
                    <use filter="url(#filter-19)" xlink:href="#text-18"></use>
                    <use xlink:href="#text-18"></use>
                </g>
                <text id="Select-a-mortgage-or" font-family="Roboto-Regular, Roboto" font-size="13" font-weight="normal" fill="#26294B">
                    <tspan x="613" y="203">Select a mortgage or services issuance in progress</tspan>
                </text>
                <g id="Rectangle" fill-rule="nonzero">
                    <use fill="url(#linearGradient-11)" xlink:href="#path-20"></use>
                    <use fill="black" fill-opacity="1" filter="url(#filter-21)" xlink:href="#path-20"></use>
                    <rect stroke="#D9E0EA" stroke-width="1" stroke-linejoin="square" x="613.5" y="219.5" width="449" height="44" rx="6"></rect>
                </g>
                <text id="Select-a-mortgage-or" font-family="Roboto-Regular, Roboto" font-size="14" font-weight="normal" fill="#B0BAC9">
                    <tspan x="628" y="249">Select a mortgage or servicing issuance in progress</tspan>
                </text>
                <polygon id="Triangle" fill="#B0BAC9" transform="translate(1042.000000, 243.500000) rotate(-180.000000) translate(-1042.000000, -243.500000) " points="1042 240 1047 247 1037 247"></polygon>
            </g>
        </g>
    </g>
</svg>