[
    {
        "title": "Data Delivery Deadline - Demographic Data",
        "eventId": "1",
        "start": "2019-01-25"
    },
    {
        "title": "Data Request",
        "eventId": "2",
        "start": "2019-01-28"
    },
    {
        "title": "Data Delivery Deadline",
        "eventId": "3",
        "start": "2019-02-01"
    },
    {
        "title": "Payroll Instruction",
        "eventId": "4",
        "start": "2019-02-07"
    },


    {
        "title": "Data Delivery Deadline - Demographic Data",
        "eventId": "1",
        "start": "2019-02-25"
    },
    {
        "title": "Data Request",
        "eventId": "2",
        "start": "2019-02-27"
    },
    {
        "title": "Data Delivery Deadline",
        "eventId": "3",
        "start": "2019-03-01"
    },
    {
        "title": "Payroll Instruction",
        "eventId": "4",
        "start": "2019-03-07"
    },



    {
        "title": "Data Delivery Deadline - Demographic Data",
        "eventId": "1",
        "start": "2019-03-25"
    },
    {
        "title": "Data Request",
        "eventId": "2",
        "start": "2019-03-27"
    },
    {
        "title": "Data Delivery Deadline",
        "eventId": "3",
        "start": "2019-04-01"
    },
    {
        "title": "Payroll Instruction",
        "eventId": "4",
        "start": "2019-04-08"
    },



    {
        "title": "Data Delivery Deadline - Demographic Data",
        "eventId": "1",
        "start": "2019-04-25"
    },
    {
        "title": "Data Request",
        "eventId": "2",
        "start": "2019-04-29"
    },
    {
        "title": "Data Delivery Deadline",
        "eventId": "3",
        "start": "2019-05-01"
    },
    {
        "title": "Payroll Instruction",
        "eventId": "4",
        "start": "2019-05-07"
    },



    {
        "title": "Data Delivery Deadline - Demographic Data",
        "eventId": "1",
        "start": "2019-05-27"
    },
    {
        "title": "Data Request",
        "eventId": "2",
        "start": "2019-05-27"
    },
    {
        "title": "Data Delivery Deadline",
        "eventId": "3",
        "start": "2019-06-01"
    },
    {
        "title": "Payroll Instruction",
        "eventId": "4",
        "start": "2019-06-07"
    },



    {
        "title": "Data Delivery Deadline - Demographic Data",
        "eventId": "1",
        "start": "2019-06-25"
    },
    {
        "title": "Data Request",
        "eventId": "2",
        "start": "2019-06-27"
    },
    {
        "title": "Data Delivery Deadline",
        "eventId": "3",
        "start": "2019-07-03"
    },
    {
        "title": "Payroll Instruction",
        "eventId": "4",
        "start": "2019-07-08"
    },



    {
        "title": "Data Delivery Deadline - Demographic Data",
        "eventId": "1",
        "start": "2019-07-25"
    },
    {
        "title": "Data Request",
        "eventId": "2",
        "start": "2019-07-29"
    },
    {
        "title": "Data Delivery Deadline",
        "eventId": "3",
        "start": "2019-08-01"
    },
    {
        "title": "Payroll Instruction",
        "eventId": "4",
        "start": "2019-08-07"
    },



    {
        "title": "Data Delivery Deadline - Demographic Data",
        "eventId": "1",
        "start": "2019-08-26"
    },
    {
        "title": "Data Request",
        "eventId": "2",
        "start": "2019-08-27"
    },
    {
        "title": "Data Delivery Deadline",
        "eventId": "3",
        "start": "2019-09-02"
    },
    {
        "title": "Payroll Instruction",
        "eventId": "4",
        "start": "2019-09-09"
    },



    {
        "title": "Data Delivery Deadline - Demographic Data",
        "eventId": "1",
        "start": "2019-09-25"
    },
    {
        "title": "Data Request",
        "eventId": "2",
        "start": "2019-09-27"
    },
    {
        "title": "Data Delivery Deadline",
        "eventId": "3",
        "start": "2019-10-01"
    },
    {
        "title": "Payroll Instruction",
        "eventId": "4",
        "start": "2019-10-07"
    },



    {
        "title": "Data Delivery Deadline - Demographic Data",
        "eventId": "1",
        "start": "2019-10-25"
    },
    {
        "title": "Data Request",
        "eventId": "2",
        "start": "2019-10-28"
    },
    {
        "title": "Data Delivery Deadline",
        "eventId": "3",
        "start": "2019-11-01"
    },
    {
        "title": "Payroll Instruction",
        "eventId": "4",
        "start": "2019-11-07"
    },



    {
        "title": "Data Delivery Deadline - Demographic Data",
        "eventId": "1",
        "start": "2019-11-25"
    },
    {
        "title": "Data Request",
        "eventId": "2",
        "start": "2019-11-27"
    },
    {
        "title": "Data Delivery Deadline",
        "eventId": "3",
        "start": "2019-12-02"
    },
    {
        "title": "Payroll Instruction",
        "eventId": "4",
        "start": "2019-12-09"
    },


    {
        "title": "Data Delivery Deadline - Demographic Data",
        "eventId": "1",
        "start": "2019-12-25"
    },
    {
        "title": "Data Request",
        "eventId": "2",
        "start": "2019-12-27"
    },
    {
        "title": "Data Delivery Deadline",
        "eventId": "3",
        "start": "2020-01-01"
    },
    {
        "title": "Payroll Instruction",
        "eventId": "4",
        "start": "2020-01-07"
    }
]