[{
    "labels": [
        "Germany",
        "USA",
        "Hungary",
        "Brazil",
        "Spain",
        "UK"
    ],
    "datasets": [{
            "label": "Joiner",
            "backgroundColor": "#00338d",
            "borderColor": "#fff",
            "data": [
                40,
                20,
                12,
                6,
                18,
                10
            ]
        },
        {
            "label": "Leaver",
            "backgroundColor": "#470a68",
            "borderColor": "#fff",
            "data": [
                18,
                12,
                5,
                10,
                31,
                25
            ]
        }
    ]
}]