[{
        "fileName": "010919_Payroll_Instruction_Data.xls",
        "payrollMonth": "09.2019",
        "uploadDate": "29/08/2019",
        "downloadDate": "01/10/2019",
        "isDownloaded": false,
        "filePath": "Client_Entity_Brazil_September_2019_Instructions.zip"
    },
    {
        "fileName": "010819_Payroll_Instruction_Data.xls",
        "payrollMonth": "08.2019",
        "uploadDate": "29/07/2019",
        "downloadDate": "01/09/2019",
        "isDownloaded": false,
        "filePath": "Client_Entity_Brazil_August_2019_Instructions.zip"
    },
    {
        "fileName": "010719_Payroll_Instruction_Data.xls",
        "payrollMonth": "07.2019",
        "uploadDate": "29/06/2019",
        "downloadDate": "01/08/2019",
        "isDownloaded": false,
        "filePath": "Client_Entity_Brazil_July_2019_Instructions.zip"
    },
    {
        "fileName": "010619_Payroll_Instruction_Data.xls",
        "payrollMonth": "06.2019",
        "uploadDate": "29/05/2019",
        "downloadDate": "01/07/2019",
        "isDownloaded": false,
        "filePath": "Client_Entity_Brazil_June_2019_Instructions.zip"
    },
    {
        "fileName": "010519_Payroll_Instruction_Data.xls",
        "payrollMonth": "05.2019",
        "uploadDate": "29/04/2019",
        "downloadDate": "01/06/2019",
        "isDownloaded": true,
        "filePath": ""
    },
    {
        "fileName": "010419_Payroll_Instruction_Data.xls",
        "payrollMonth": "04.2019",
        "uploadDate": "29/03/2019",
        "downloadDate": "01/05/2019",
        "isDownloaded": true,
        "filePath": ""
    },
    {
        "fileName": "010319_Payroll_Instruction_Data.xls",
        "payrollMonth": "03.2019",
        "uploadDate": "29/02/2019",
        "downloadDate": "01/04/2019",
        "isDownloaded": true,
        "filePath": ""
    },
    {
        "fileName": "010219_Payroll_Instruction_Data.xls",
        "payrollMonth": "02.2019",
        "uploadDate": "29/01/2019",
        "downloadDate": "01/03/2019",
        "isDownloaded": true,
        "filePath": ""
    },
    {
        "fileName": "010119_Payroll_Instruction_Data.xls",
        "payrollMonth": "01.2019",
        "uploadDate": "29/12/2018",
        "downloadDate": "01/02/2019",
        "isDownloaded": true,
        "filePath": ""
    }
]