[
    {
        "Data": [
            {
                "ID": 2250,
                "Start": 1561964700000,
                "End": 1561964700000,
                "Name": "Malwina Maciag",
                "Email": "malwinamaciag@kpmg.pl",
                "A1Typ": "12",
                "Status": "Abgeschlossen",
                "isCompleted": true,
                "HostCountry": "Dänemark",
                "ModifiedBy": null,
                "LockedById": null,
                "isDraft": null,
                "isStartDateNull": null,
                "isEndDateNull": null,
                "CreatedDate": 1561964700000,
                "ModifiedDate": null,
                "isForm13": false,
                "isModifiedDateNull": true
            },
            {
                "ID": 2138,
                "Start": 1561964700000,
                "End": 1569964700000,
                "Name": "Malwina Maciag",
                "Email": "malwinamaciag@kpmg.pl",
                "A1Typ": "12",
                "Status": "In Bearbeitung",
                "isCompleted": true,
                "HostCountry": "Dänemark",
                "ModifiedBy": null,
                "LockedById": null,
                "isDraft": null,
                "isStartDateNull": null,
                "isEndDateNull": null,
                "CreatedDate": 1561964700000,
                "ModifiedDate": null,
                "isForm13": false,
                "isModifiedDateNull": true
            }
        ],
        "Total": 299,
        "Aggregates": null
    }
]