[{
        "country": "AR",
        "MyGPM": {
            "year": "2019",
            "MGlobalDataCollection": "100",
            "MGlobalDataCollectionPer": "5,75",
            "MGlobalDataCollectionUp": "increase",
            "YGlobalDataCollection": "88,47",
            "YGlobalDataCollectionPer": "15,69",
            "YGlobalDataCollectionUp": "increase",
            "MDataReview": "3,64",
            "MDataReviewPer": "2,46",
            "MDataReviewUp": "decrease",
            "YDataReview": "2,44",
            "YDataReviewPer": "2,36",
            "YDataReviewUp": "decrease",
            "MPayrollProcessing": "97,48",
            "MPayrollProcessingPer": "3,75",
            "MPayrollProcessingUp": "decrease",
            "YPayrollProcessing": "98,47",
            "YPayrollProcessingPer": "10,69",
            "YPayrollProcessingUp": "increase",
            "MGlobalCompliance": "75,64",
            "MGlobalCompliancePer": "3,24",
            "MGlobalComplianceUp": "increase",
            "YGlobalCompliance": "76,52",
            "YGlobalCompliancePer": "3,63",
            "YGlobalComplianceUp": "increase"
        }
    },
    {
        "country": "AU",
        "MyGPM": {
            "year": "2019",
            "MGlobalDataCollection": "50",
            "MGlobalDataCollectionPer": "3,96",
            "MGlobalDataCollectionUp": "decrease",
            "YGlobalDataCollection": "94,58",
            "YGlobalDataCollectionPer": "16,92",
            "YGlobalDataCollectionUp": "decrease",
            "MDataReview": "3,65",
            "MDataReviewPer": "2,46",
            "MDataReviewUp": "increase",
            "YDataReview": "2,44",
            "YDataReviewPer": "2,36",
            "YDataReviewUp": "decrease",
            "MPayrollProcessing": "99,23",
            "MPayrollProcessingPer": "5,92",
            "MPayrollProcessingUp": "increase",
            "YPayrollProcessing": "97,58",
            "YPayrollProcessingPer": "11,92",
            "YPayrollProcessingUp": "increase",
            "MGlobalCompliance": "77,59",
            "MGlobalCompliancePer": "3,25",
            "MGlobalComplianceUp": "increase",
            "YGlobalCompliance": "77,33",
            "YGlobalCompliancePer": "3,67",
            "YGlobalComplianceUp": "increase"
        }
    },
    {
        "country": "BE",
        "MyGPM": {
            "year": "2019",
            "MGlobalDataCollection": "100",
            "MGlobalDataCollectionPer": "5,35",
            "MGlobalDataCollectionUp": "increase",
            "YGlobalDataCollection": "84,47",
            "YGlobalDataCollectionPer": "14,89",
            "YGlobalDataCollectionUp": "increase",
            "MDataReview": "3,65",
            "MDataReviewPer": "2,47",
            "MDataReviewUp": "decrease",
            "YDataReview": "2,45",
            "YDataReviewPer": "2,37",
            "YDataReviewUp": "decrease",
            "MPayrollProcessing": "93,48",
            "MPayrollProcessingPer": "3,35",
            "MPayrollProcessingUp": "increase",
            "YPayrollProcessing": "94,47",
            "YPayrollProcessingPer": "9,89",
            "YPayrollProcessingUp": "increase",
            "MGlobalCompliance": "75,87",
            "MGlobalCompliancePer": "3,25",
            "MGlobalComplianceUp": "increase",
            "YGlobalCompliance": "77,41",
            "YGlobalCompliancePer": "3,67",
            "YGlobalComplianceUp": "increase"
        }
    },
    {
        "country": "BR",
        "MyGPM": {
            "year": "2019",
            "MGlobalDataCollection": "50",
            "MGlobalDataCollectionPer": "3,05",
            "MGlobalDataCollectionUp": "decrease",
            "YGlobalDataCollection": "94,62",
            "YGlobalDataCollectionPer": "16,92",
            "YGlobalDataCollectionUp": "decrease",
            "MDataReview": "3,65",
            "MDataReviewPer": "2,47",
            "MDataReviewUp": "decrease",
            "YDataReview": "2,45",
            "YDataReviewPer": "2,37",
            "YDataReviewUp": "decrease",
            "MPayrollProcessing": "95,98",
            "MPayrollProcessingPer": "4,1",
            "MPayrollProcessingUp": "decrease",
            "YPayrollProcessing": "97,62",
            "YPayrollProcessingPer": "11,92",
            "YPayrollProcessingUp": "increase",
            "MGlobalCompliance": "75,94",
            "MGlobalCompliancePer": "3,25",
            "MGlobalComplianceUp": "increase",
            "YGlobalCompliance": "77,48",
            "YGlobalCompliancePer": "3,67",
            "YGlobalComplianceUp": "increase"
        }
    },
    {
        "country": "CN",
        "MyGPM": {
            "year": "2019",
            "MGlobalDataCollection": "0",
            "MGlobalDataCollectionPer": "100",
            "MGlobalDataCollectionUp": "decrease",
            "YGlobalDataCollection": "95,52",
            "YGlobalDataCollectionPer": "17,1",
            "YGlobalDataCollectionUp": "decrease",
            "MDataReview": "3,66",
            "MDataReviewPer": "2,47",
            "MDataReviewUp": "increase",
            "YDataReview": "2,45",
            "YDataReviewPer": "2,37",
            "YDataReviewUp": "decrease",
            "MPayrollProcessing": "96,85",
            "MPayrollProcessingPer": "6,19",
            "MPayrollProcessingUp": "decrease",
            "YPayrollProcessing": "98,52",
            "YPayrollProcessingPer": "12,1",
            "YPayrollProcessingUp": "increase",
            "MGlobalCompliance": "76,02",
            "MGlobalCompliancePer": "3,26",
            "MGlobalComplianceUp": "increase",
            "YGlobalCompliance": "77,56",
            "YGlobalCompliancePer": "3,68",
            "YGlobalComplianceUp": "increase"
        }
    },
    {
        "country": "DK",
        "MyGPM": {
            "year": "2019",
            "MGlobalDataCollection": "100",
            "MGlobalDataCollectionPer": "4,14",
            "MGlobalDataCollectionUp": "increase",
            "YGlobalDataCollection": "96,44",
            "YGlobalDataCollectionPer": "17,29",
            "YGlobalDataCollectionUp": "increase",
            "MDataReview": "3,66",
            "MDataReviewPer": "2,47",
            "MDataReviewUp": "increase",
            "YDataReview": "2,45",
            "YDataReviewPer": "2,37",
            "YDataReviewUp": "decrease",
            "MPayrollProcessing": "97,73",
            "MPayrollProcessingPer": "6,27",
            "MPayrollProcessingUp": "increase",
            "YPayrollProcessing": "97,44",
            "YPayrollProcessingPer": "12,29",
            "YPayrollProcessingUp": "increase",
            "MGlobalCompliance": "76,09",
            "MGlobalCompliancePer": "3,26",
            "MGlobalComplianceUp": "increase",
            "YGlobalCompliance": "77,63",
            "YGlobalCompliancePer": "3,68",
            "YGlobalComplianceUp": "increase"
        }
    },
    {
        "country": "FI",
        "MyGPM": {
            "year": "2019",
            "MGlobalDataCollection": "100",
            "MGlobalDataCollectionPer": "3,18",
            "MGlobalDataCollectionUp": "increase",
            "YGlobalDataCollection": "97,34",
            "YGlobalDataCollectionPer": "17,47",
            "YGlobalDataCollectionUp": "increase",
            "MDataReview": "3,67",
            "MDataReviewPer": "2,48",
            "MDataReviewUp": "decrease",
            "YDataReview": "2,46",
            "YDataReviewPer": "2,38",
            "YDataReviewUp": "decrease",
            "MPayrollProcessing": "98,6",
            "MPayrollProcessingPer": "4,36",
            "MPayrollProcessingUp": "increase",
            "YPayrollProcessing": "98,34",
            "YPayrollProcessingPer": "12,47",
            "YPayrollProcessingUp": "increase",
            "MGlobalCompliance": "76,57",
            "MGlobalCompliancePer": "3,26",
            "MGlobalComplianceUp": "increase",
            "YGlobalCompliance": "77,71",
            "YGlobalCompliancePer": "3,69",
            "YGlobalComplianceUp": "increase"
        }
    },
    {
        "country": "FR",
        "MyGPM": {
            "year": "2019",
            "MGlobalDataCollection": "100",
            "MGlobalDataCollectionPer": "3,23",
            "MGlobalDataCollectionUp": "increase",
            "YGlobalDataCollection": "96,37",
            "YGlobalDataCollectionPer": "17,27",
            "YGlobalDataCollectionUp": "increase",
            "MDataReview": "3,67",
            "MDataReviewPer": "2,48",
            "MDataReviewUp": "decrease",
            "YDataReview": "2,46",
            "YDataReviewPer": "2,38",
            "YDataReviewUp": "decrease",
            "MPayrollProcessing": "99,48",
            "MPayrollProcessingPer": "4,45",
            "MPayrollProcessingUp": "increase",
            "YPayrollProcessing": "99,37",
            "YPayrollProcessingPer": "12,27",
            "YPayrollProcessingUp": "increase",
            "MGlobalCompliance": "77,18",
            "MGlobalCompliancePer": "3,27",
            "MGlobalComplianceUp": "increase",
            "YGlobalCompliance": "77,79",
            "YGlobalCompliancePer": "3,69",
            "YGlobalComplianceUp": "increase"
        }
    },
    {
        "country": "GB",
        "MyGPM": {
            "year": "2019",
            "MGlobalDataCollection": "100",
            "MGlobalDataCollectionPer": "4,27",
            "MGlobalDataCollectionUp": "increase",
            "YGlobalDataCollection": "97,26",
            "YGlobalDataCollectionPer": "17,45",
            "YGlobalDataCollectionUp": "increase",
            "MDataReview": "3,67",
            "MDataReviewPer": "2,48",
            "MDataReviewUp": "increase",
            "YDataReview": "2,46",
            "YDataReviewPer": "2,38",
            "YDataReviewUp": "decrease",
            "MPayrollProcessing": "97,35",
            "MPayrollProcessingPer": "6,54",
            "MPayrollProcessingUp": "increase",
            "YPayrollProcessing": "98,26",
            "YPayrollProcessingPer": "12,45",
            "YPayrollProcessingUp": "increase",
            "MGlobalCompliance": "76,32",
            "MGlobalCompliancePer": "3,27",
            "MGlobalComplianceUp": "increase",
            "YGlobalCompliance": "77,86",
            "YGlobalCompliancePer": "3,69",
            "YGlobalComplianceUp": "increase"
        }
    },
    {
        "country": "IN",
        "MyGPM": {
            "year": "2019",
            "MGlobalDataCollection": "100",
            "MGlobalDataCollectionPer": "3,92",
            "MGlobalDataCollectionUp": "increase",
            "YGlobalDataCollection": "92,77",
            "YGlobalDataCollectionPer": "16,55",
            "YGlobalDataCollectionUp": "increase",
            "MDataReview": "3,68",
            "MDataReviewPer": "2,48",
            "MDataReviewUp": "increase",
            "YDataReview": "2,46",
            "YDataReviewPer": "2,38",
            "YDataReviewUp": "decrease",
            "MPayrollProcessing": "98,35",
            "MPayrollProcessingPer": "5,84",
            "MPayrollProcessingUp": "increase",
            "YPayrollProcessing": "95,77",
            "YPayrollProcessingPer": "11,55",
            "YPayrollProcessingUp": "increase",
            "MGlobalCompliance": "76,4",
            "MGlobalCompliancePer": "3,27",
            "MGlobalComplianceUp": "increase",
            "YGlobalCompliance": "77,94",
            "YGlobalCompliancePer": "3,7",
            "YGlobalComplianceUp": "increase"
        }
    },
    {
        "country": "IE",
        "MyGPM": {
            "year": "2019",
            "MGlobalDataCollection": "100",
            "MGlobalDataCollectionPer": "5,84",
            "MGlobalDataCollectionUp": "increase",
            "YGlobalDataCollection": "92,95",
            "YGlobalDataCollectionPer": "16,59",
            "YGlobalDataCollectionUp": "increase",
            "MDataReview": "3,68",
            "MDataReviewPer": "2,49",
            "MDataReviewUp": "decrease",
            "YDataReview": "2,47",
            "YDataReviewPer": "2,39",
            "YDataReviewUp": "decrease",
            "MPayrollProcessing": "98,44",
            "MPayrollProcessingPer": "3,84",
            "MPayrollProcessingUp": "increase",
            "YPayrollProcessing": "95,95",
            "YPayrollProcessingPer": "11,59",
            "YPayrollProcessingUp": "increase",
            "MGlobalCompliance": "76,47",
            "MGlobalCompliancePer": "3,28",
            "MGlobalComplianceUp": "increase",
            "YGlobalCompliance": "78,01",
            "YGlobalCompliancePer": "3,7",
            "YGlobalComplianceUp": "increase"
        }
    },
    {
        "country": "IT",
        "MyGPM": {
            "year": "2019",
            "MGlobalDataCollection": "100",
            "MGlobalDataCollectionPer": "3,93",
            "MGlobalDataCollectionUp": "increase",
            "YGlobalDataCollection": "93,13",
            "YGlobalDataCollectionPer": "16,63",
            "YGlobalDataCollectionUp": "increase",
            "MDataReview": "3,68",
            "MDataReviewPer": "2,49",
            "MDataReviewUp": "increase",
            "YDataReview": "2,47",
            "YDataReviewPer": "2,39",
            "YDataReviewUp": "decrease",
            "MPayrollProcessing": "98,53",
            "MPayrollProcessingPer": "5,85",
            "MPayrollProcessingUp": "increase",
            "YPayrollProcessing": "96,13",
            "YPayrollProcessingPer": "11,63",
            "YPayrollProcessingUp": "increase",
            "MGlobalCompliance": "77,01",
            "MGlobalCompliancePer": "3,28",
            "MGlobalComplianceUp": "increase",
            "YGlobalCompliance": "78,09",
            "YGlobalCompliancePer": "3,7",
            "YGlobalComplianceUp": "increase"
        }
    },
    {
        "country": "HR",
        "MyGPM": {
            "year": "2019",
            "MGlobalDataCollection": "100",
            "MGlobalDataCollectionPer": "5,86",
            "MGlobalDataCollectionUp": "increase",
            "YGlobalDataCollection": "93,32",
            "YGlobalDataCollectionPer": "16,66",
            "YGlobalDataCollectionUp": "increase",
            "MDataReview": "3,69",
            "MDataReviewPer": "2,49",
            "MDataReviewUp": "decrease",
            "YDataReview": "2,47",
            "YDataReviewPer": "2,39",
            "YDataReviewUp": "decrease",
            "MPayrollProcessing": "98,62",
            "MPayrollProcessingPer": "3,86",
            "MPayrollProcessingUp": "increase",
            "YPayrollProcessing": "96,32",
            "YPayrollProcessingPer": "11,66",
            "YPayrollProcessingUp": "increase",
            "MGlobalCompliance": "76,62",
            "MGlobalCompliancePer": "3,28",
            "MGlobalComplianceUp": "increase",
            "YGlobalCompliance": "78,16",
            "YGlobalCompliancePer": "3,71",
            "YGlobalComplianceUp": "increase"
        }
    },
    {
        "country": "MX",
        "MyGPM": {
            "year": "2019",
            "MGlobalDataCollection": "100",
            "MGlobalDataCollectionPer": "3,94",
            "MGlobalDataCollectionUp": "increase",
            "YGlobalDataCollection": "93,49",
            "YGlobalDataCollectionPer": "16,7",
            "YGlobalDataCollectionUp": "increase",
            "MDataReview": "3,69",
            "MDataReviewPer": "2,49",
            "MDataReviewUp": "increase",
            "YDataReview": "2,47",
            "YDataReviewPer": "2,39",
            "YDataReviewUp": "decrease",
            "MPayrollProcessing": "98,7",
            "MPayrollProcessingPer": "5,87",
            "MPayrollProcessingUp": "increase",
            "YPayrollProcessing": "96,49",
            "YPayrollProcessingPer": "11,7",
            "YPayrollProcessingUp": "increase",
            "MGlobalCompliance": "76,7",
            "MGlobalCompliancePer": "3,29",
            "MGlobalComplianceUp": "increase",
            "YGlobalCompliance": "78,24",
            "YGlobalCompliancePer": "3,71",
            "YGlobalComplianceUp": "increase"
        }
    },
    {
        "country": "LU",
        "MyGPM": {
            "year": "2019",
            "MGlobalDataCollection": "100",
            "MGlobalDataCollectionPer": "3,94",
            "MGlobalDataCollectionUp": "increase",
            "YGlobalDataCollection": "93,67",
            "YGlobalDataCollectionPer": "16,73",
            "YGlobalDataCollectionUp": "increase",
            "MDataReview": "3,69",
            "MDataReviewPer": "2,5",
            "MDataReviewUp": "increase",
            "YDataReview": "2,48",
            "YDataReviewPer": "2,4",
            "YDataReviewUp": "decrease",
            "MPayrollProcessing": "98,79",
            "MPayrollProcessingPer": "5,88",
            "MPayrollProcessingUp": "increase",
            "YPayrollProcessing": "96,67",
            "YPayrollProcessingPer": "11,73",
            "YPayrollProcessingUp": "increase",
            "MGlobalCompliance": "76,98",
            "MGlobalCompliancePer": "3,29",
            "MGlobalComplianceUp": "increase",
            "YGlobalCompliance": "78,31",
            "YGlobalCompliancePer": "3,71",
            "YGlobalComplianceUp": "increase"
        }
    },
    {
        "country": "NL",
        "MyGPM": {
            "year": "2019",
            "MGlobalDataCollection": "100",
            "MGlobalDataCollectionPer": "5,89",
            "MGlobalDataCollectionUp": "increase",
            "YGlobalDataCollection": "93,86",
            "YGlobalDataCollectionPer": "16,77",
            "YGlobalDataCollectionUp": "increase",
            "MDataReview": "3,7",
            "MDataReviewPer": "2,5",
            "MDataReviewUp": "decrease",
            "YDataReview": "2,48",
            "YDataReviewPer": "2,4",
            "YDataReviewUp": "decrease",
            "MPayrollProcessing": "98,88",
            "MPayrollProcessingPer": "3,89",
            "MPayrollProcessingUp": "increase",
            "YPayrollProcessing": "96,86",
            "YPayrollProcessingPer": "11,77",
            "YPayrollProcessingUp": "increase",
            "MGlobalCompliance": "76,85",
            "MGlobalCompliancePer": "3,29",
            "MGlobalComplianceUp": "increase",
            "YGlobalCompliance": "78,39",
            "YGlobalCompliancePer": "3,72",
            "YGlobalComplianceUp": "increase"
        }
    },
    {
        "country": "AT",
        "MyGPM": {
            "year": "2019",
            "MGlobalDataCollection": "100",
            "MGlobalDataCollectionPer": "3,95",
            "MGlobalDataCollectionUp": "increase",
            "YGlobalDataCollection": "94,04",
            "YGlobalDataCollectionPer": "16,81",
            "YGlobalDataCollectionUp": "increase",
            "MDataReview": "3,7",
            "MDataReviewPer": "2,5",
            "MDataReviewUp": "increase",
            "YDataReview": "2,48",
            "YDataReviewPer": "2,4",
            "YDataReviewUp": "decrease",
            "MPayrollProcessing": "98,97",
            "MPayrollProcessingPer": "5,9",
            "MPayrollProcessingUp": "increase",
            "YPayrollProcessing": "97,04",
            "YPayrollProcessingPer": "11,81",
            "YPayrollProcessingUp": "increase",
            "MGlobalCompliance": "78,7",
            "MGlobalCompliancePer": "3,3",
            "MGlobalComplianceUp": "increase",
            "YGlobalCompliance": "78,47",
            "YGlobalCompliancePer": "3,72",
            "YGlobalComplianceUp": "increase"
        }
    },
    {
        "country": "PL",
        "MyGPM": {
            "year": "2019",
            "MGlobalDataCollection": "70",
            "MGlobalDataCollectionPer": "4,75",
            "MGlobalDataCollectionUp": "decrease",
            "YGlobalDataCollection": "78,47",
            "YGlobalDataCollectionPer": "13,69",
            "YGlobalDataCollectionUp": "decrease",
            "MDataReview": "3,71",
            "MDataReviewPer": "2,5",
            "MDataReviewUp": "decrease",
            "YDataReview": "2,48",
            "YDataReviewPer": "2,4",
            "YDataReviewUp": "decrease",
            "MPayrollProcessing": "87,48",
            "MPayrollProcessingPer": "2,75",
            "MPayrollProcessingUp": "decrease",
            "YPayrollProcessing": "88,47",
            "YPayrollProcessingPer": "8,69",
            "YPayrollProcessingUp": "increase",
            "MGlobalCompliance": "77",
            "MGlobalCompliancePer": "3,3",
            "MGlobalComplianceUp": "increase",
            "YGlobalCompliance": "78,54",
            "YGlobalCompliancePer": "3,73",
            "YGlobalComplianceUp": "increase"
        }
    },
    {
        "country": "PT",
        "MyGPM": {
            "year": "2019",
            "MGlobalDataCollection": "100",
            "MGlobalDataCollectionPer": "5,91",
            "MGlobalDataCollectionUp": "increase",
            "YGlobalDataCollection": "94,4",
            "YGlobalDataCollectionPer": "16,88",
            "YGlobalDataCollectionUp": "increase",
            "MDataReview": "3,71",
            "MDataReviewPer": "2,51",
            "MDataReviewUp": "decrease",
            "YDataReview": "2,49",
            "YDataReviewPer": "2,4",
            "YDataReviewUp": "decrease",
            "MPayrollProcessing": "99,14",
            "MPayrollProcessingPer": "3,91",
            "MPayrollProcessingUp": "decrease",
            "YPayrollProcessing": "97,4",
            "YPayrollProcessingPer": "11,88",
            "YPayrollProcessingUp": "increase",
            "MGlobalCompliance": "77,08",
            "MGlobalCompliancePer": "3,3",
            "MGlobalComplianceUp": "increase",
            "YGlobalCompliance": "78,62",
            "YGlobalCompliancePer": "3,73",
            "YGlobalComplianceUp": "increase"
        }
    },
    {
        "country": "RU",
        "MyGPM": {
            "year": "2019",
            "MGlobalDataCollection": "0",
            "MGlobalDataCollectionPer": "100",
            "MGlobalDataCollectionUp": "decrease",
            "YGlobalDataCollection": "94,58",
            "YGlobalDataCollectionPer": "16,92",
            "YGlobalDataCollectionUp": "decrease",
            "MDataReview": "3,71",
            "MDataReviewPer": "2,51",
            "MDataReviewUp": "increase",
            "YDataReview": "2,49",
            "YDataReviewPer": "2,41",
            "YDataReviewUp": "decrease",
            "MPayrollProcessing": "99,23",
            "MPayrollProcessingPer": "5,92",
            "MPayrollProcessingUp": "increase",
            "YPayrollProcessing": "97,58",
            "YPayrollProcessingPer": "11,92",
            "YPayrollProcessingUp": "increase",
            "MGlobalCompliance": "77,15",
            "MGlobalCompliancePer": "3,31",
            "MGlobalComplianceUp": "increase",
            "YGlobalCompliance": "78,69",
            "YGlobalCompliancePer": "3,73",
            "YGlobalComplianceUp": "increase"
        }
    },
    {
        "country": "ZA",
        "MyGPM": {
            "year": "2019",
            "MGlobalDataCollection": "70",
            "MGlobalDataCollectionPer": "4,05",
            "MGlobalDataCollectionUp": "decrease",
            "YGlobalDataCollection": "71,47",
            "YGlobalDataCollectionPer": "12,29",
            "YGlobalDataCollectionUp": "decrease",
            "MDataReview": "3,72",
            "MDataReviewPer": "2,51",
            "MDataReviewUp": "decrease",
            "YDataReview": "2,49",
            "YDataReviewPer": "2,41",
            "YDataReviewUp": "decrease",
            "MPayrollProcessing": "80,48",
            "MPayrollProcessingPer": "2,05",
            "MPayrollProcessingUp": "increase",
            "YPayrollProcessing": "81,47",
            "YPayrollProcessingPer": "7,29",
            "YPayrollProcessingUp": "increase",
            "MGlobalCompliance": "77,23",
            "MGlobalCompliancePer": "3,31",
            "MGlobalComplianceUp": "increase",
            "YGlobalCompliance": "78,77",
            "YGlobalCompliancePer": "3,74",
            "YGlobalComplianceUp": "increase"
        }
    },
    {
        "country": "ES",
        "MyGPM": {
            "year": "2019",
            "MGlobalDataCollection": "0",
            "MGlobalDataCollectionPer": "100",
            "MGlobalDataCollectionUp": "decrease",
            "YGlobalDataCollection": "94,94",
            "YGlobalDataCollectionPer": "16,99",
            "YGlobalDataCollectionUp": "decrease",
            "MDataReview": "3,72",
            "MDataReviewPer": "2,51",
            "MDataReviewUp": "decrease",
            "YDataReview": "2,49",
            "YDataReviewPer": "2,41",
            "YDataReviewUp": "decrease",
            "MPayrollProcessing": "99,4",
            "MPayrollProcessingPer": "3,94",
            "MPayrollProcessingUp": "increase",
            "YPayrollProcessing": "97,94",
            "YPayrollProcessingPer": "11,99",
            "YPayrollProcessingUp": "increase",
            "MGlobalCompliance": "77,3",
            "MGlobalCompliancePer": "3,31",
            "MGlobalComplianceUp": "increase",
            "YGlobalCompliance": "78,84",
            "YGlobalCompliancePer": "3,74",
            "YGlobalComplianceUp": "increase"
        }
    },
    {
        "country": "SE",
        "MyGPM": {
            "year": "2019",
            "MGlobalDataCollection": "100",
            "MGlobalDataCollectionPer": "3,98",
            "MGlobalDataCollectionUp": "increase",
            "YGlobalDataCollection": "95,13",
            "YGlobalDataCollectionPer": "17,03",
            "YGlobalDataCollectionUp": "increase",
            "MDataReview": "3,72",
            "MDataReviewPer": "2,52",
            "MDataReviewUp": "increase",
            "YDataReview": "2,5",
            "YDataReviewPer": "2,41",
            "YDataReviewUp": "decrease",
            "MPayrollProcessing": "99,49",
            "MPayrollProcessingPer": "5,95",
            "MPayrollProcessingUp": "increase",
            "YPayrollProcessing": "98,13",
            "YPayrollProcessingPer": "12,03",
            "YPayrollProcessingUp": "increase",
            "MGlobalCompliance": "77,38",
            "MGlobalCompliancePer": "3,32",
            "MGlobalComplianceUp": "increase",
            "YGlobalCompliance": "78,92",
            "YGlobalCompliancePer": "3,74",
            "YGlobalComplianceUp": "increase"
        }
    },
    {
        "country": "CZ",
        "MyGPM": {
            "year": "2019",
            "MGlobalDataCollection": "100",
            "MGlobalDataCollectionPer": "5,96",
            "MGlobalDataCollectionUp": "increase",
            "YGlobalDataCollection": "95,31",
            "YGlobalDataCollectionPer": "17,06",
            "YGlobalDataCollectionUp": "increase",
            "MDataReview": "3,73",
            "MDataReviewPer": "2,52",
            "MDataReviewUp": "decrease",
            "YDataReview": "2,5",
            "YDataReviewPer": "2,42",
            "YDataReviewUp": "decrease",
            "MPayrollProcessing": "99,58",
            "MPayrollProcessingPer": "3,96",
            "MPayrollProcessingUp": "increase",
            "YPayrollProcessing": "98,31",
            "YPayrollProcessingPer": "12,06",
            "YPayrollProcessingUp": "increase",
            "MGlobalCompliance": "77,46",
            "MGlobalCompliancePer": "3,32",
            "MGlobalComplianceUp": "increase",
            "YGlobalCompliance": "79",
            "YGlobalCompliancePer": "3,75",
            "YGlobalComplianceUp": "increase"
        }
    },
    {
        "country": "HU",
        "MyGPM": {
            "year": "2019",
            "MGlobalDataCollection": "100",
            "MGlobalDataCollectionPer": "3,99",
            "MGlobalDataCollectionUp": "increase",
            "YGlobalDataCollection": "95,5",
            "YGlobalDataCollectionPer": "17,1",
            "YGlobalDataCollectionUp": "increase",
            "MDataReview": "3,73",
            "MDataReviewPer": "2,52",
            "MDataReviewUp": "increase",
            "YDataReview": "2,5",
            "YDataReviewPer": "2,42",
            "YDataReviewUp": "decrease",
            "MPayrollProcessing": "99,67",
            "MPayrollProcessingPer": "5,97",
            "MPayrollProcessingUp": "decrease",
            "YPayrollProcessing": "98,5",
            "YPayrollProcessingPer": "12,1",
            "YPayrollProcessingUp": "increase",
            "MGlobalCompliance": "77,43",
            "MGlobalCompliancePer": "3,32",
            "MGlobalComplianceUp": "increase",
            "YGlobalCompliance": "79,07",
            "YGlobalCompliancePer": "3,75",
            "YGlobalComplianceUp": "increase"
        }
    },
    {
        "country": "US",
        "MyGPM": {
            "year": "2019",
            "MGlobalDataCollection": "100",
            "MGlobalDataCollectionPer": "4,22",
            "MGlobalDataCollectionUp": "increase",
            "YGlobalDataCollection": "94,91",
            "YGlobalDataCollectionPer": "16,98",
            "YGlobalDataCollectionUp": "increase",
            "MDataReview": "3,73",
            "MDataReviewPer": "2,52",
            "MDataReviewUp": "increase",
            "YDataReview": "2,5",
            "YDataReviewPer": "2,42",
            "YDataReviewUp": "decrease",
            "MPayrollProcessing": "94,31",
            "MPayrollProcessingPer": "6,43",
            "MPayrollProcessingUp": "decrease",
            "YPayrollProcessing": "97,91",
            "YPayrollProcessingPer": "11,98",
            "YPayrollProcessingUp": "increase",
            "MGlobalCompliance": "77,61",
            "MGlobalCompliancePer": "3,33",
            "MGlobalComplianceUp": "increase",
            "YGlobalCompliance": "81,15",
            "YGlobalCompliancePer": "3,85",
            "YGlobalComplianceUp": "increase"
        }
    },
    {
        "country": "HK",
        "MyGPM": {
            "year": "2019",
            "MGlobalDataCollection": "100",
            "MGlobalDataCollectionPer": "4,28",
            "MGlobalDataCollectionUp": "increase",
            "YGlobalDataCollection": "96,82",
            "YGlobalDataCollectionPer": "17,36",
            "YGlobalDataCollectionUp": "increase",
            "MDataReview": "3,74",
            "MDataReviewPer": "2,53",
            "MDataReviewUp": "increase",
            "YDataReview": "2,51",
            "YDataReviewPer": "2,42",
            "YDataReviewUp": "decrease",
            "MPayrollProcessing": "97,45",
            "MPayrollProcessingPer": "6,55",
            "MPayrollProcessingUp": "increase",
            "YPayrollProcessing": "99,82",
            "YPayrollProcessingPer": "12,36",
            "YPayrollProcessingUp": "increase",
            "MGlobalCompliance": "76,76",
            "MGlobalCompliancePer": "3,33",
            "MGlobalComplianceUp": "increase",
            "YGlobalCompliance": "79,22",
            "YGlobalCompliancePer": "3,76",
            "YGlobalComplianceUp": "increase"
        }
    },
    {
        "country": "CH",
        "MyGPM": {
            "year": "2019",
            "MGlobalDataCollection": "100",
            "MGlobalDataCollectionPer": "4,1",
            "MGlobalDataCollectionUp": "increase",
            "YGlobalDataCollection": "96,05",
            "YGlobalDataCollectionPer": "17,21",
            "YGlobalDataCollectionUp": "increase",
            "MDataReview": "3,74",
            "MDataReviewPer": "2,53",
            "MDataReviewUp": "increase",
            "YDataReview": "2,51",
            "YDataReviewPer": "2,43",
            "YDataReviewUp": "decrease",
            "MPayrollProcessing": "99,93",
            "MPayrollProcessingPer": "5,99",
            "MPayrollProcessingUp": "increase",
            "YPayrollProcessing": "99,05",
            "YPayrollProcessingPer": "12,21",
            "YPayrollProcessingUp": "increase",
            "MGlobalCompliance": "77,48",
            "MGlobalCompliancePer": "3,33",
            "MGlobalComplianceUp": "increase",
            "YGlobalCompliance": "79,3",
            "YGlobalCompliancePer": "3,76",
            "YGlobalComplianceUp": "increase"
        }
    },
    {
        "country": "CO",
        "MyGPM": {
            "year": "2019",
            "MGlobalDataCollection": "100",
            "MGlobalDataCollectionPer": "3,28",
            "MGlobalDataCollectionUp": "increase",
            "YGlobalDataCollection": "96,23",
            "YGlobalDataCollectionPer": "17,25",
            "YGlobalDataCollectionUp": "increase",
            "MDataReview": "3,75",
            "MDataReviewPer": "2,53",
            "MDataReviewUp": "decrease",
            "YDataReview": "2,51",
            "YDataReviewPer": "2,43",
            "YDataReviewUp": "decrease",
            "MPayrollProcessing": "95,02",
            "MPayrollProcessingPer": "4",
            "MPayrollProcessingUp": "increase",
            "YPayrollProcessing": "99,23",
            "YPayrollProcessingPer": "12,25",
            "YPayrollProcessingUp": "increase",
            "MGlobalCompliance": "77,83",
            "MGlobalCompliancePer": "3,34",
            "MGlobalComplianceUp": "increase",
            "YGlobalCompliance": "79,37",
            "YGlobalCompliancePer": "3,76",
            "YGlobalComplianceUp": "increase"
        }
    },
    {
        "country": "MA",
        "MyGPM": {
            "year": "2019",
            "MGlobalDataCollection": "100",
            "MGlobalDataCollectionPer": "4,01",
            "MGlobalDataCollectionUp": "increase",
            "YGlobalDataCollection": "96,41",
            "YGlobalDataCollectionPer": "17,28",
            "YGlobalDataCollectionUp": "increase",
            "MDataReview": "3,75",
            "MDataReviewPer": "2,53",
            "MDataReviewUp": "increase",
            "YDataReview": "2,51",
            "YDataReviewPer": "2,43",
            "YDataReviewUp": "decrease",
            "MPayrollProcessing": "95,1",
            "MPayrollProcessingPer": "6,01",
            "MPayrollProcessingUp": "increase",
            "YPayrollProcessing": "99,41",
            "YPayrollProcessingPer": "12,28",
            "YPayrollProcessingUp": "increase",
            "MGlobalCompliance": "78,04",
            "MGlobalCompliancePer": "3,34",
            "MGlobalComplianceUp": "increase",
            "YGlobalCompliance": "79,45",
            "YGlobalCompliancePer": "3,77",
            "YGlobalComplianceUp": "increase"
        }
    },
    {
        "country": "SG",
        "MyGPM": {
            "year": "2019",
            "MGlobalDataCollection": "100",
            "MGlobalDataCollectionPer": "4,01",
            "MGlobalDataCollectionUp": "increase",
            "YGlobalDataCollection": "96,59",
            "YGlobalDataCollectionPer": "17,32",
            "YGlobalDataCollectionUp": "increase",
            "MDataReview": "3,75",
            "MDataReviewPer": "2,54",
            "MDataReviewUp": "increase",
            "YDataReview": "2,52",
            "YDataReviewPer": "2,43",
            "YDataReviewUp": "decrease",
            "MPayrollProcessing": "95,19",
            "MPayrollProcessingPer": "6,02",
            "MPayrollProcessingUp": "increase",
            "YPayrollProcessing": "99,59",
            "YPayrollProcessingPer": "12,32",
            "YPayrollProcessingUp": "increase",
            "MGlobalCompliance": "77,92",
            "MGlobalCompliancePer": "3,34",
            "MGlobalComplianceUp": "increase",
            "YGlobalCompliance": "79,52",
            "YGlobalCompliancePer": "3,77",
            "YGlobalComplianceUp": "increase"
        }
    },
    {
        "country": "DE",
        "MyGPM": {
            "year": "2019",
            "MGlobalDataCollection": "100",
            "MGlobalDataCollectionPer": "3,42",
            "MGlobalDataCollectionUp": "increase",
            "YGlobalDataCollection": "99,14",
            "YGlobalDataCollectionPer": "17,83",
            "YGlobalDataCollectionUp": "increase",
            "MDataReview": "2,45",
            "MDataReviewPer": "2,46",
            "MDataReviewUp": "increase",
            "YDataReview": "2,01",
            "YDataReviewPer": "2,36",
            "YDataReviewUp": "decrease",
            "MPayrollProcessing": "98,31",
            "MPayrollProcessingPer": "4,83",
            "MPayrollProcessingUp": "increase",
            "YPayrollProcessing": "99,14",
            "YPayrollProcessingPer": "12,83",
            "YPayrollProcessingUp": "increase",
            "MGlobalCompliance": "70,06",
            "MGlobalCompliancePer": "3,35",
            "MGlobalComplianceUp": "increase",
            "YGlobalCompliance": "80,6",
            "YGlobalCompliancePer": "3,82",
            "YGlobalComplianceUp": "increase"
        }
    },
    {
        "country": "OO",
        "MyGPM": {
            "year": "2019",
            "MGlobalDataCollection": "85,62",
            "MGlobalDataCollectionPer": "7",
            "MGlobalDataCollectionUp": "decrease",
            "YGlobalDataCollection": "93,38",
            "YGlobalDataCollectionPer": "16,68",
            "YGlobalDataCollectionUp": "decrease",
            "MDataReview": "3,66",
            "MDataReviewPer": "2,5",
            "MDataReviewUp": "increase",
            "YDataReview": "2,46",
            "YDataReviewPer": "2,4",
            "YDataReviewUp": "decrease",
            "MPayrollProcessing": "97,04",
            "MPayrollProcessingPer": "5",
            "MPayrollProcessingUp": "increase",
            "YPayrollProcessing": "96,98",
            "YPayrollProcessingPer": "11,68",
            "YPayrollProcessingUp": "increase",
            "MGlobalCompliance": "76,89",
            "MGlobalCompliancePer": "3,3",
            "MGlobalComplianceUp": "increase",
            "YGlobalCompliance": "78,5",
            "YGlobalCompliancePer": "3,72",
            "YGlobalComplianceUp": "increase"
        }
    }
]