[{
    "labels": [
        "2017",
        "2018",
        "2019"
    ],
    "datasets": [{
            "label": "Long-Term Assignments",
            "backgroundColor": "#00338d",
            "borderColor": "#fff",
            "data": [
                500,
                50,
                65
            ]
        },
        {
            "label": "Short-Term Assignments",
            "backgroundColor": "#470a68",
            "borderColor": "#fff",
            "data": [
                450,
                565,
                440
            ]
        },
        {
            "label": "Commuter",
            "backgroundColor": "#005eb8",
            "borderColor": "#fff",
            "data": [
                610,
                520,
                360
            ]
        },
        {
            "label": "Business Traveller",
            "backgroundColor": "#00a3a1",
            "borderColor": "#fff",
            "data": [
                600,
                550,
                670
            ]
        }
    ]
}]