[{
        "PayrollID": "67890",
        "AssignmentID": "1A2B12",
        "LastName": "De",
        "FirstName": "Santos",
        "AssignmentType": "Long-Term Assignment",
        "AssignmentStart": "03-01-19",
        "AssignmentEnd": "12-31-21",
        "HomeCountry": "Germany",
        "HomeEntity": "Entity Germany",
        "HostCountry": "Brazil",
        "HostEntity": "Entity Brazil",
        "ExpectedData": "All Data"
    },
    {
        "PayrollID": "190121",
        "AssignmentID": "1D2X125",
        "LastName": "Ballack",
        "FirstName": "Michael",
        "AssignmentType": "Long-Term Assignment",
        "AssignmentStart": "01-01-18",
        "AssignmentEnd": "11-30-20",
        "HomeCountry": "Brazil",
        "HomeEntity": "Entity Brazil",
        "HostCountry": "USA",
        "HostEntity": "Entity USA",
        "ExpectedData": "All Data"
    },
    {
        "PayrollID": "342476",
        "AssignmentID": "C3D449",
        "LastName": "Beckenbauer",
        "FirstName": "Franz",
        "AssignmentType": "Long-Term Assignment",
        "AssignmentStart": "12-01-17",
        "AssignmentEnd": "08-31-21",
        "HomeCountry": "Germany",
        "HomeEntity": "Entity Germany",
        "HostCountry": "Brazil",
        "HostEntity": "Entity Brazil",
        "ExpectedData": "All Data"
    },

    {
        "PayrollID": "595940",
        "AssignmentID": "C3D453",
        "LastName": "Müller",
        "FirstName": "Thomas",
        "AssignmentType": "Short-Term Assignment",
        "AssignmentStart": "06-01-19",
        "AssignmentEnd": "01-31-20",
        "HomeCountry": "Germany",
        "HomeEntity": "Entity Germany",
        "HostCountry": "Brazil",
        "HostEntity": "Entity Brazil",
        "ExpectedData": "All Data"
    },
    {
        "PayrollID": "701227",
        "AssignmentID": "C3D455",
        "LastName": "Müller",
        "FirstName": "Gerd",
        "AssignmentType": "Long-Term Assignment",
        "AssignmentStart": "12-01-17",
        "AssignmentEnd": "02-28-19",
        "HomeCountry": "Brazil",
        "HomeEntity": "Entity Brazil",
        "HostCountry": "USA",
        "HostEntity": "Entity USA",
        "ExpectedData": "Assignment related data"
    },
    {
        "PayrollID": "849404",
        "AssignmentID": "C3D457",
        "LastName": "Felix",
        "FirstName": "Jao",
        "AssignmentType": "Long-Term Assignment",
        "AssignmentStart": "12-01-17",
        "AssignmentEnd": "08-31-21",
        "HomeCountry": "Germany",
        "HomeEntity": "Entity Germany",
        "HostCountry": "Brazil",
        "HostEntity": "Entity Brazil",
        "ExpectedData": "All Data"
    },
    {
        "PayrollID": "912770",
        "AssignmentID": "C3D458",
        "LastName": "Maier",
        "FirstName": "Sepp",
        "AssignmentType": "Long-Term Assignment",
        "AssignmentStart": "11-01-17",
        "AssignmentEnd": "01-31-19",
        "HomeCountry": "USA",
        "HomeEntity": "Entity USA",
        "HostCountry": "Brazil",
        "HostEntity": "Entity Brazil",
        "ExpectedData": "Assignment related data"
    },
    {
        "PayrollID": "1212333",
        "AssignmentID": "1A2B30",
        "LastName": "Guerriero",
        "FirstName": "Raphael",
        "AssignmentType": "Long-Term Assignment",
        "AssignmentStart": "11-01-17",
        "AssignmentEnd": "04-30-19",
        "HomeCountry": "Brazil",
        "HomeEntity": "Entity Brazil",
        "HostCountry": "Germany",
        "HostEntity": "Entity Germany",
        "ExpectedData": "Assignment related data"
    },
    {
        "PayrollID": "1335210",
        "AssignmentID": "1A2B32",
        "LastName": "Hazard",
        "FirstName": "Eden",
        "AssignmentType": "Long-Term Assignment",
        "AssignmentStart": "04-01-18",
        "AssignmentEnd": "12-31-21",
        "HomeCountry": "USA",
        "HomeEntity": "Entity USA",
        "HostCountry": "Brazil",
        "HostEntity": "Entity Brazil",
        "ExpectedData": "All Data"
    },
    {
        "PayrollID": "2012325",
        "AssignmentID": "1D2X144",
        "LastName": "Hummels",
        "FirstName": "Mats",
        "AssignmentType": "Short-Term Assignment",
        "AssignmentStart": "01-01-19",
        "AssignmentEnd": "06-30-19",
        "HomeCountry": "Brazil",
        "HomeEntity": "Entity Brazil",
        "HostCountry": "Germany",
        "HostEntity": "Entity Germany",
        "ExpectedData": "Assignment related data"
    },
    {
        "PayrollID": "1778772",
        "AssignmentID": "1A2B39",
        "LastName": "Lemar",
        "FirstName": "Thoas",
        "AssignmentType": "Short-Term Assignment",
        "AssignmentStart": "10-01-18",
        "AssignmentEnd": "03-31-19",
        "HomeCountry": "USA",
        "HomeEntity": "Entity USA",
        "HostCountry": "Brazil",
        "HostEntity": "Entity Brazil",
        "ExpectedData": "Assignment related data"
    },
    {
        "PayrollID": "1923437",
        "AssignmentID": "1D2X151",
        "LastName": "Macmanaman",
        "FirstName": "Steve",
        "AssignmentType": "Short-Term Assignment",
        "AssignmentStart": "10-01-18",
        "AssignmentEnd": "05-31-19",
        "HomeCountry": "Brazil",
        "HomeEntity": "Entity Brazil",
        "HostCountry": "Germany",
        "HostEntity": "Entity Germany",
        "ExpectedData": "Assignment related data"
    },
    {
        "PayrollID": "2919360",
        "AssignmentID": "1A2B57",
        "LastName": "Ter Stegen",
        "FirstName": "Andre",
        "AssignmentType": "Long-Term Assignment",
        "AssignmentStart": "09-01-17",
        "AssignmentEnd": "07-31-19",
        "HomeCountry": "USA",
        "HomeEntity": "Entity USA",
        "HostCountry": "Brazil",
        "HostEntity": "Entity Brazil",
        "ExpectedData": "Assignment related data"
    },
    {
        "PayrollID": "3301201",
        "AssignmentID": "C3D494",
        "LastName": "Reus",
        "FirstName": "Marco",
        "AssignmentType": "Short-Term Assignment",
        "AssignmentStart": "05-01-18",
        "AssignmentEnd": "06-30-19",
        "HomeCountry": "Brazil",
        "HomeEntity": "Entity Brazil",
        "HostCountry": "Germany",
        "HostEntity": "Entity Germany",
        "ExpectedData": "Assignment related data"
    },
    {
        "PayrollID": "617062",
        "AssignmentID": "1D2X131",
        "LastName": "Lampert",
        "FirstName": "Paul",
        "AssignmentType": "Short-Term Assignment",
        "AssignmentStart": "08-01-17",
        "AssignmentEnd": "07-31-18",
        "HomeCountry": "USA",
        "HomeEntity": "Entity USA",
        "HostCountry": "Brazil",
        "HostEntity": "Entity Brazil",
        "ExpectedData": "Assignment related data"
    },
    {
        "PayrollID": "923447",
        "AssignmentID": "1D2X136",
        "LastName": "Matthäus",
        "FirstName": "Lothar",
        "AssignmentType": "Short-Term Assignment",
        "AssignmentStart": "06-01-18",
        "AssignmentEnd": "03-31-19",
        "HomeCountry": "Brazil",
        "HomeEntity": "Entity Brazil",
        "HostCountry": "Germany",
        "HostEntity": "Entity Germany",
        "ExpectedData": "Assignment related data"
    },
    {
        "PayrollID": "2012325",
        "AssignmentID": "1A2B42",
        "LastName": "Maldini",
        "FirstName": "Paolo",
        "AssignmentType": "Short-Term Assignment",
        "AssignmentStart": "05-01-17",
        "AssignmentEnd": "06-30-18",
        "HomeCountry": "Brazil",
        "HomeEntity": "Entity Brazil",
        "HostCountry": "USA",
        "HostEntity": "Entity USA",
        "ExpectedData": "Assignment related data"
    }
]