[{
        "EmpId": "1009217",
        "EmpName": "Müller, Thomas",
        "AssignmentID": "C3D453",
        "AssignmentType": "STA",
        "HomeCountry": "Germany",
        "HomeEntity": "Germany Entity",
        "HostCountry": "Brazil",
        "HostEntity": "Brazil Entity",
        "AssignmentStartDate": "06.01.2019",
        "AssignmentEndDate": "31.01.2020",
        "HomePayrollID": "567895",
        "HostPayrollID": "595940",
        "PaymentAmout": "11300",
        "PaymentCurrency": "BRL",
        "PaymentDate": "28.08.2019",
        "LocalClientWageCode": "001",
        "LocalClientWageCodeDesc": "Salario Mensalita",
        "GlobalKPMGWageCode": "1001",
        "GlobalKPMGWageCodeDesc": "Salary Assignment Period",
        "IssueDetected": "Payment not expected from Host Country",
        "KPMGComment": "Please confirm that payment has been instructed correctly",
        "ClientAction": "",
        "Status": "Open",
        "Id": 1,
        "NoOfAssignments": 2
    },
    {
        "EmpId": "100838",
        "EmpName": "Maier, Sepp",
        "AssignmentID": "C3D458",
        "AssignmentType": "LTA",
        "HomeCountry": "United States",
        "HomeEntity": "USA Entity",
        "HostCountry": "Brazil",
        "HostEntity": "Brazil Entity",
        "AssignmentStartDate": "11.01.2017",
        "AssignmentEndDate": "31.01.2019",
        "HomePayrollID": "901225",
        "HostPayrollID": "912770",
        "PaymentAmout": "11500",
        "PaymentCurrency": "BRL",
        "PaymentDate": "28.08.2019",
        "LocalClientWageCode": "001",
        "LocalClientWageCodeDesc": "Salario Mensalita",
        "GlobalKPMGWageCode": "1001",
        "GlobalKPMGWageCodeDesc": "Salary Assignment Period",
        "IssueDetected": "Payment not expected for an Assginment with status H",
        "KPMGComment": "We assume that the payment provided is a correction - please confirm that payment has been instructed correctly",
        "ClientAction": "",
        "Status": "Open",
        "Id": 2,
        "NoOfAssignments": 1
    },
    {
        "EmpId": "100838",
        "EmpName": "Maier, Sepp",
        "AssignmentID": "C3D458",
        "AssignmentType": "LTA",
        "HomeCountry": "United States",
        "HomeEntity": "USA Entity",
        "HostCountry": "Brazil",
        "HostEntity": "Brazil Entity",
        "AssignmentStartDate": "11.01.2017",
        "AssignmentEndDate": "31.01.2019",
        "HomePayrollID": "901225",
        "HostPayrollID": "912770",
        "PaymentAmout": "2300",
        "PaymentCurrency": "BRL",
        "PaymentDate": "28.08.2019",
        "LocalClientWageCode": "129",
        "LocalClientWageCodeDesc": "ADIC NOT 20%",
        "GlobalKPMGWageCode": "1703",
        "GlobalKPMGWageCodeDesc": "Shift premium",
        "IssueDetected": "Payment not expected for an Assginment with status H",
        "KPMGComment": "Please confirm that payment has been instructed correctly",
        "ClientAction": "",
        "Status": "Open",
        "Id": 3,
        "NoOfAssignments": 1
    }
]