[{
        "OriginalFileName": "FolhaPagamentos_Agosto19.xlsx",
        "UpdatedSourceFileName": "Aug19_BRA_PO",
        "SourceWageCode": "730",
        "SourceWageCodeDescription": "Custos Apartemento",
        "SignConversion": "No",
        "KPMGWageCodeSuggestion": 3204,
        "KPMGWageCodeDescriptionSuggestion": "Housing - Cash",
        "KPMGComment": "We understand, that the wage code reflects a cash payment based on an invoice to the employee to cover for the housing costs during the assignment.",
        "ClientComment": "",
        "ClientAction": "",
        "Id": 1,
        "Status": "Open"
    },
    {
        "OriginalFileName": "FolhaPagamentos_Agosto19.xlsx",
        "UpdatedSourceFileName": "Aug19_BRA_PO",
        "SourceWageCode": "/333",
        "SourceWageCodeDescription": "Total contribuições seguridade social",
        "SignConversion": "No",
        "KPMGWageCodeSuggestion": 9999,
        "KPMGWageCodeDescriptionSuggestion": "Technical Code",
        "KPMGComment": "We understand, that the wage code refelcts the sum of the social securitry payments. As we already report the partial amount, te sum can be treated as \"Technical Code\".",
        "ClientComment": "",
        "ClientAction": "",
        "Id": 2,
        "Status": "Open"
    },
    {
        "OriginalFileName": "FolhaPagamentos_Julho19.xlsx",
        "UpdatedSourceFileName": "Aug19_BRA_PO",
        "SourceWageCode": "947",
        "SourceWageCodeDescription": "Bonus para destacamento",
        "SignConversion": "No",
        "KPMGWageCodeSuggestion": 1109,
        "KPMGWageCodeDescriptionSuggestion": "Bonus Assignment Period paid in Host",
        "KPMGComment": "We understand, that this wage code reflects a bonus for the assignment period for inbound assignees.",
        "ClientComment": "We are currently checking with the payroll department, if the wage code is only used for inbounds.",
        "ClientAction": "",
        "Id": 3,
        "Status": "Open"
    },
    {
        "OriginalFileName": "FolhaPagamentos_Maio19.xlsx",
        "UpdatedSourceFileName": "May19_Bra_Po",
        "SourceWageCode": "750",
        "SourceWageCodeDescription": "Custos curso de língua - familia",
        "SignConversion": "No",
        "KPMGWageCodeSuggestion": 3149,
        "KPMGWageCodeDescriptionSuggestion": "Languages Training Family - Cash",
        "KPMGComment": "Cash reimbursement to the employee for the costs occurred for the family only for languages trainings to prepare and / or support the international assignment.",
        "ClientComment": "Your understanding is correct",
        "ClientAction": "Accepted",
        "Id": 4,
        "Status": "Closed"
    },
    {
        "OriginalFileName": "FolhaPagamentos_Maio19.xlsx",
        "UpdatedSourceFileName": "May19_Bra_Po",
        "SourceWageCode": "300",
        "SourceWageCodeDescription": "Base seguridade social",
        "SignConversion": "No",
        "KPMGWageCodeSuggestion": 9999,
        "KPMGWageCodeDescriptionSuggestion": "Technical Code",
        "KPMGComment": "We understand that this wage code reflect a calculation base and can therefore be treated as \"Technical Code\". ",
        "ClientComment": "The amount reflects the base for the caculation of the social security.",
        "ClientAction": "Accepted",
        "Id": 5,
        "Status": "Closed"
    },
    {
        "OriginalFileName": "FolhaPagamentos_Fevereiro19.xlsx",
        "UpdatedSourceFileName": "Feb19_Bra_Po",
        "SourceWageCode": "/777",
        "SourceWageCodeDescription": "Custos Total",
        "SignConversion": "No",
        "KPMGWageCodeSuggestion": 9999,
        "KPMGWageCodeDescriptionSuggestion": "Technical Code",
        "KPMGComment": "We understand that this wage code reflects a sum and it can therefore be treated as \"Technical Code\"",
        "ClientComment": "Your understanding is correct",
        "ClientAction": "Accepted",
        "Id": 6,
        "Status": "Closed"
    },
    {
        "OriginalFileName": "FolhaPagamentos_Fevereiro19.xlsx",
        "UpdatedSourceFileName": "Feb19_Bra_Po",
        "SourceWageCode": "740",
        "SourceWageCodeDescription": "Custos escola",
        "SignConversion": "No",
        "KPMGWageCodeSuggestion": 3243,
        "KPMGWageCodeDescriptionSuggestion": "School / Tuition - Cash",
        "KPMGComment": "We understand that this payment reflect a payment to the employee to cover for the costs arising due to obligatory schooling / tuition of the employee's children during the assignment. ",
        "ClientComment": "Your understanding is correct",
        "ClientAction": "Accepted",
        "Id": 7,
        "Status": "Closed"
    },
    {
        "OriginalFileName": "FolhaPagamentos_Janeiro19.xlsx",
        "UpdatedSourceFileName": "Jan19_Bra_Po",
        "SourceWageCode": "311",
        "SourceWageCodeDescription": "Seguridade Social EE/ER",
        "SignConversion": "No",
        "KPMGWageCodeSuggestion": 2020,
        "KPMGWageCodeDescriptionSuggestion": "Compulsory Social Security EE contribution covered by ER",
        "KPMGComment": "We understand that this wage code reflects the that employee contribuations to the social security are taken over by the employer.  ",
        "ClientComment": "Your understanding is correct",
        "ClientAction": "Accepted",
        "Id": 8,
        "Status": "Closed"
    },
    {
        "OriginalFileName": "FolhaPagamentos_Janeiro19.xlsx",
        "UpdatedSourceFileName": "Jan19_Bra_Po",
        "SourceWageCode": "310",
        "SourceWageCodeDescription": "Seguridade Social EE",
        "SignConversion": "Yes",
        "KPMGWageCodeSuggestion": 2010,
        "KPMGWageCodeDescriptionSuggestion": "Compulsory Social Security EE contributon",
        "KPMGComment": "We understand that this wage code reflects the contribution to the social security of the employee. ",
        "ClientComment": "Your understanding is correct",
        "ClientAction": "Accepted",
        "Id": 9,
        "Status": "Closed"
    }
]