[
    {
        "data": {
            "name": "25-08-2019",
            "size": "Authorization_List_08_2019.XLS"
        },
        "children": []
    },
    {
        "data": {
            "name": "25-07-2019",
            "size": "Authorization_List_07_2019.XLS"
        },
        "children": []
    },
    {
        "data": {
            "name": "25-06-2019",
            "size": "Authorization_List_06_2019.XLS"
        },
        "children": []
    },
    {
        "data": {
            "name": "25-05-2019",
            "size": "Authorization_List_05_2019.XLS"
        },
        "children": []
    },
    {
        "data": {
            "name": "25-04-2019",
            "size": "Authorization_List_04_2019.XLS"
        },
        "children": []
    },
    {
        "data": {
            "name": "25-03-2019",
            "size": "Authorization_List_03_2019.XLS"
        },
        "children": []
    },
    {
        "data": {
            "name": "25-02-2019",
            "size": "Authorization_List_02_2019.XLS"
        },
        "children": []
    },
    {
        "data": {
            "name": "25-01-2019",
            "size": "Authorization_List_01_2019.XLS"
        },
        "children": []
    }
]