		[{
		        "WageGroup": "Regular Compensation",
		        "WageCodeGroup": "Salary",
		        "WageCodeNumber": "1001",
		        "WageCode": "Salary Assignment Period",
		        "PShortTermAssignment": "A",
		        "PLongTermAssignment": "A",
		        "PLocalization": "-",
		        "SrShortTermAssignment": "Home",
		        "SrLongTermAssignment": "Host",
		        "SrLocalization": "-"
		    },
		    {
		        "WageGroup": "Additional Pay",
		        "WageCodeGroup": "Extra Pay",
		        "WageCodeNumber": "1750",
		        "WageCode": "Additional Pay",
		        "PShortTermAssignment": "A",
		        "PLongTermAssignment": "A",
		        "PLocalization": "-",
		        "SrShortTermAssignment": "Home",
		        "SrLongTermAssignment": "Host",
		        "SrLocalization": "-"
		    },
		    {
		        "WageGroup": "Additional Pay",
		        "WageCodeGroup": "Overtime Payout",
		        "WageCodeNumber": "1700",
		        "WageCode": "Overtime Payout",
		        "PShortTermAssignment": "A",
		        "PLongTermAssignment": "A",
		        "PLocalization": "-",
		        "SrShortTermAssignment": "Home",
		        "SrLongTermAssignment": "Host",
		        "SrLocalization": "-"
		    },
		    {
		        "WageGroup": "Additional Pay",
		        "WageCodeGroup": "Shift premium",
		        "WageCodeNumber": "1703",
		        "WageCode": "Shift premium",
		        "PShortTermAssignment": "A",
		        "PLongTermAssignment": "A",
		        "PLocalization": "-",
		        "SrShortTermAssignment": "Home",
		        "SrLongTermAssignment": "Host",
		        "SrLocalization": "-"
		    },
		    {
		        "WageGroup": "Additional Pay",
		        "WageCodeGroup": "Shift premium",
		        "WageCodeNumber": "1704",
		        "WageCode": "Overtime surcharge",
		        "PShortTermAssignment": "A",
		        "PLongTermAssignment": "A",
		        "PLocalization": "-",
		        "SrShortTermAssignment": "Home",
		        "SrLongTermAssignment": "Host",
		        "SrLocalization": "-"
		    },
		    {
		        "WageGroup": "Social Security",
		        "WageCodeGroup": "Compulsory Social Security EE",
		        "WageCodeNumber": "2010",
		        "WageCode": "Compulsory Social Security EE contributon",
		        "PShortTermAssignment": "A",
		        "PLongTermAssignment": "A",
		        "PLocalization": "-",
		        "SrShortTermAssignment": "Home",
		        "SrLongTermAssignment": "Home",
		        "SrLocalization": "-"
		    },
		    {
		        "WageGroup": "Tax",
		        "WageCodeGroup": "Withholding Tax / Income Tax Employee",
		        "WageCodeNumber": "4000",
		        "WageCode": "Withholding Tax Employee",
		        "PShortTermAssignment": "A",
		        "PLongTermAssignment": "A",
		        "PLocalization": "-",
		        "SrShortTermAssignment": "Home",
		        "SrLongTermAssignment": "Host",
		        "SrLocalization": "-"
		    },
		    {
		        "WageGroup": "Policy Benefit Ongoing",
		        "WageCodeGroup": "Others",
		        "WageCodeNumber": "3273",
		        "WageCode": "Others Lump sum",
		        "PShortTermAssignment": "P / A / H",
		        "PLongTermAssignment": "A / H",
		        "PLocalization": "H",
		        "SrShortTermAssignment": "Home",
		        "SrLongTermAssignment": "Host",
		        "SrLocalization": "Host"
		    },
		    {
		        "WageGroup": "Policy Benefit Initiation",
		        "WageCodeGroup": "Languages Training",
		        "WageCodeNumber": "3144",
		        "WageCode": "Languages Training",
		        "PShortTermAssignment": "P / A / H",
		        "PLongTermAssignment": "A",
		        "PLocalization": "H",
		        "SrShortTermAssignment": "Home",
		        "SrLongTermAssignment": "Host",
		        "SrLocalization": "Host"
		    },
		    {
		        "WageGroup": "Additional Pay",
		        "WageCodeGroup": "Meal Allowance / Per Diem",
		        "WageCodeNumber": "1800",
		        "WageCode": "Meal Allowance / Per Diem",
		        "PShortTermAssignment": "A",
		        "PLongTermAssignment": "A",
		        "PLocalization": "-",
		        "SrShortTermAssignment": "Home",
		        "SrLongTermAssignment": "Host",
		        "SrLocalization": "-"
		    },
		    {
		        "WageGroup": "Policy Benefit Ongoing",
		        "WageCodeGroup": "Others",
		        "WageCodeNumber": "3275",
		        "WageCode": "Others Benefit in kind",
		        "PShortTermAssignment": "P / A / H",
		        "PLongTermAssignment": "A / H",
		        "PLocalization": "H",
		        "SrShortTermAssignment": "Home",
		        "SrLongTermAssignment": "Host",
		        "SrLocalization": "Host"
		    },
		    {
		        "WageGroup": "Social Security",
		        "WageCodeGroup": "Voluntary Insurances Employer",
		        "WageCodeNumber": "2101",
		        "WageCode": "Voluntary Insurances Employer",
		        "PShortTermAssignment": "A",
		        "PLongTermAssignment": "A",
		        "PLocalization": "-",
		        "SrShortTermAssignment": "Home",
		        "SrLongTermAssignment": "Home",
		        "SrLocalization": "-"
		    },
		    {
		        "WageGroup": "Social Security",
		        "WageCodeGroup": "Compulsory Social Security EE",
		        "WageCodeNumber": "2012",
		        "WageCode": "Compulsory Health Ins. EE Contribution",
		        "PShortTermAssignment": "A",
		        "PLongTermAssignment": "A",
		        "PLocalization": "-",
		        "SrShortTermAssignment": "Home",
		        "SrLongTermAssignment": "Home",
		        "SrLocalization": "-"
		    },
		    {
		        "WageGroup": "Policy Benefit Ongoing",
		        "WageCodeGroup": "Child Care",
		        "WageCodeNumber": "3234",
		        "WageCode": "Child Care Cash",
		        "PShortTermAssignment": "P / A / H",
		        "PLongTermAssignment": "A / H",
		        "PLocalization": "H",
		        "SrShortTermAssignment": "Home",
		        "SrLongTermAssignment": "Host",
		        "SrLocalization": "Host"
		    },
		    {
		        "WageGroup": "Social Security",
		        "WageCodeGroup": "Compulsory Social Security EE",
		        "WageCodeNumber": "2014",
		        "WageCode": "Compulsory Unemployment Ins. EE Contribution",
		        "PShortTermAssignment": "A",
		        "PLongTermAssignment": "A",
		        "PLocalization": "-",
		        "SrShortTermAssignment": "Home",
		        "SrLongTermAssignment": "Home",
		        "SrLocalization": "-"
		    },
		    {
		        "WageGroup": "Regular Compensation",
		        "WageCodeGroup": "Special Bonus",
		        "WageCodeNumber": "1304",
		        "WageCode": "Yearly Premium",
		        "PShortTermAssignment": "A",
		        "PLongTermAssignment": "A",
		        "PLocalization": "-",
		        "SrShortTermAssignment": "Home",
		        "SrLongTermAssignment": "Host",
		        "SrLocalization": "-"
		    },
		    {
		        "WageGroup": "Social Security",
		        "WageCodeGroup": "Compulsory Social Security ER",
		        "WageCodeNumber": "2000",
		        "WageCode": "Compulsory Social Security ER contribution",
		        "PShortTermAssignment": "A",
		        "PLongTermAssignment": "A",
		        "PLocalization": "-",
		        "SrShortTermAssignment": "Home",
		        "SrLongTermAssignment": "Home",
		        "SrLocalization": "-"
		    },
		    {
		        "WageGroup": "Policy Benefit Initiation",
		        "WageCodeGroup": "Languages Training",
		        "WageCodeNumber": "3145",
		        "WageCode": "Languages Training Cash",
		        "PShortTermAssignment": "P / A / H",
		        "PLongTermAssignment": "A / H",
		        "PLocalization": "H",
		        "SrShortTermAssignment": "Home",
		        "SrLongTermAssignment": "Host",
		        "SrLocalization": "Host"
		    },
		    {
		        "WageGroup": "Social Security",
		        "WageCodeGroup": "Compulsory Social Security ER",
		        "WageCodeNumber": "2002",
		        "WageCode": "Compulsory Health Ins. ER Contribution",
		        "PShortTermAssignment": "A",
		        "PLongTermAssignment": "A",
		        "PLocalization": "-",
		        "SrShortTermAssignment": "Home",
		        "SrLongTermAssignment": "Home",
		        "SrLocalization": "-"
		    }
		]