[{
        "id": "1",
        "name": "Tesco Extra",
        "lat": "52.38422234675774",
        "lng": "-1.7893708726958037",
        "category": "Restaurant",
        "address": "1505 Stratford Rd",
        "address2": "Shirley",
        "city": "Shirley",
        "state": "Solihull",
        "postal": "B90 4EN",
        "phone": "(0161) 22 5968",
        "web": "http:\/\/www.chipotle.com",
        "hours1": "",
        "hours2": "",
        "hours3": "",
        "featured": "",
        "features": "",
        "date": "10/17/18"
    },
    {
        "id": "2",
        "name": "Ginger Blue",
        "lat": "52.396666186146966",
        "lng": "-1.8120222573528657",
        "category": "Restaurant",
        "address": "268 Cranmore Blvd",
        "address2": "",
        "city": "Shirley",
        "state": "",
        "postal": "B90 4PX",
        "phone": "(0114) 125 6986",
        "web": "http:\/\/www.chipotle.com",
        "hours1": "",
        "hours2": "",
        "hours3": "",
        "featured": "",
        "features": "Online Ordering",
        "date": "09/17/18"
    },
    {
        "id": "3",
        "name": "Nelsons Fish & Chips",
        "lat": "51.73662392603487",
        "lng": "0.4678267388405509",
        "category": "Restaurant, Bar",
        "address": "2366 Stratford Rd",
        "address2": "",
        "city": "Hockley Heath",
        "state": "MN",
        "postal": "CM1 1HT",
        "phone": "(020) 3250 4528",
        "web": "http:\/\/www.chipotle.com",
        "hours1": "",
        "hours2": "",
        "hours3": "",
        "featured": "true",
        "features": "Online Ordering, Fresh Guacamole",
        "date": "08/17/18"
    }
]